%YAML 1.1
%TAG !u! tag:unity3d.com,2011:
--- !u!1 &5297933971368508154
GameObject:
  m_ObjectHideFlags: 0
  m_CorrespondingSourceObject: {fileID: 0}
  m_PrefabInstance: {fileID: 0}
  m_PrefabAsset: {fileID: 0}
  serializedVersion: 6
  m_Component:
  - component: {fileID: 8690484881684624523}
  m_Layer: 0
  m_Name: IslandPrefab
  m_TagString: Untagged
  m_Icon: {fileID: 0}
  m_NavMeshLayer: 0
  m_StaticEditorFlags: 0
  m_IsActive: 1
--- !u!4 &8690484881684624523
Transform:
  m_ObjectHideFlags: 0
  m_CorrespondingSourceObject: {fileID: 0}
  m_PrefabInstance: {fileID: 0}
  m_PrefabAsset: {fileID: 0}
  m_GameObject: {fileID: 5297933971368508154}
  m_LocalRotation: {x: -0.49991274, y: 0.50008726, z: 0.49991274, w: 0.50008726}
  m_LocalPosition: {x: 0, y: 0.83, z: 0}
  m_LocalScale: {x: 900, y: 450, z: 100}
  m_Children:
  - {fileID: 8075526978389187518}
  m_Father: {fileID: 0}
  m_RootOrder: 0
  m_LocalEulerAnglesHint: {x: 0, y: 0, z: 0}
--- !u!64 &8075526978647376859
MeshCollider:
  m_ObjectHideFlags: 0
  m_CorrespondingSourceObject: {fileID: 0}
  m_PrefabInstance: {fileID: 0}
  m_PrefabAsset: {fileID: 0}
  m_GameObject: {fileID: 8075526978389608350}
  m_Material: {fileID: 0}
  m_IsTrigger: 0
  m_Enabled: 1
  serializedVersion: 3
  m_Convex: 0
  m_CookingOptions: 14
  m_Mesh: {fileID: 4300002, guid: 9bc7c8fe47e2eee4c87e1514433fe2d5, type: 3}
--- !u!1001 &8075526978389573948
PrefabInstance:
  m_ObjectHideFlags: 0
  serializedVersion: 2
  m_Modification:
    m_TransformParent: {fileID: 8690484881684624523}
    m_Modifications:
    - target: {fileID: 100002, guid: 9bc7c8fe47e2eee4c87e1514433fe2d5, type: 3}
      propertyPath: m_Name
      value: Island
      objectReference: {fileID: 0}
    - target: {fileID: 400002, guid: 9bc7c8fe47e2eee4c87e1514433fe2d5, type: 3}
      propertyPath: m_LocalPosition.x
      value: 0
      objectReference: {fileID: 0}
    - target: {fileID: 400002, guid: 9bc7c8fe47e2eee4c87e1514433fe2d5, type: 3}
      propertyPath: m_LocalPosition.y
      value: 0
      objectReference: {fileID: 0}
    - target: {fileID: 400002, guid: 9bc7c8fe47e2eee4c87e1514433fe2d5, type: 3}
      propertyPath: m_LocalPosition.z
      value: 0
      objectReference: {fileID: 0}
    - target: {fileID: 400002, guid: 9bc7c8fe47e2eee4c87e1514433fe2d5, type: 3}
      propertyPath: m_LocalRotation.x
      value: -0
      objectReference: {fileID: 0}
    - target: {fileID: 400002, guid: 9bc7c8fe47e2eee4c87e1514433fe2d5, type: 3}
      propertyPath: m_LocalRotation.y
      value: -0
      objectReference: {fileID: 0}
    - target: {fileID: 400002, guid: 9bc7c8fe47e2eee4c87e1514433fe2d5, type: 3}
      propertyPath: m_LocalRotation.z
      value: -0
      objectReference: {fileID: 0}
    - target: {fileID: 400002, guid: 9bc7c8fe47e2eee4c87e1514433fe2d5, type: 3}
      propertyPath: m_LocalRotation.w
      value: 1
      objectReference: {fileID: 0}
    - target: {fileID: 400002, guid: 9bc7c8fe47e2eee4c87e1514433fe2d5, type: 3}
      propertyPath: m_RootOrder
      value: 0
      objectReference: {fileID: 0}
    - target: {fileID: 400002, guid: 9bc7c8fe47e2eee4c87e1514433fe2d5, type: 3}
      propertyPath: m_LocalEulerAnglesHint.x
      value: -89.98
      objectReference: {fileID: 0}
    - target: {fileID: 400002, guid: 9bc7c8fe47e2eee4c87e1514433fe2d5, type: 3}
      propertyPath: m_LocalEulerAnglesHint.y
      value: 90
      objectReference: {fileID: 0}
    - target: {fileID: 400002, guid: 9bc7c8fe47e2eee4c87e1514433fe2d5, type: 3}
      propertyPath: m_LocalEulerAnglesHint.z
      value: 0
      objectReference: {fileID: 0}
    - target: {fileID: 400002, guid: 9bc7c8fe47e2eee4c87e1514433fe2d5, type: 3}
      propertyPath: m_LocalScale.x
      value: 1
      objectReference: {fileID: 0}
    - target: {fileID: 400002, guid: 9bc7c8fe47e2eee4c87e1514433fe2d5, type: 3}
      propertyPath: m_LocalScale.y
      value: 1
      objectReference: {fileID: 0}
    - target: {fileID: 400002, guid: 9bc7c8fe47e2eee4c87e1514433fe2d5, type: 3}
      propertyPath: m_LocalScale.z
      value: 1
      objectReference: {fileID: 0}
    - target: {fileID: 2300002, guid: 9bc7c8fe47e2eee4c87e1514433fe2d5, type: 3}
      propertyPath: m_Materials.Array.data[0]
      value: 
      objectReference: {fileID: 2100000, guid: fa59c42fd01f07d4ba34cf2932fbeca7, type: 2}
    m_RemovedComponents: []
  m_SourcePrefab: {fileID: 100100000, guid: 9bc7c8fe47e2eee4c87e1514433fe2d5, type: 3}
--- !u!1 &8075526978389608350 stripped
GameObject:
  m_CorrespondingSourceObject: {fileID: 100002, guid: 9bc7c8fe47e2eee4c87e1514433fe2d5,
    type: 3}
  m_PrefabInstance: {fileID: 8075526978389573948}
  m_PrefabAsset: {fileID: 0}
--- !u!4 &8075526978389187518 stripped
Transform:
  m_CorrespondingSourceObject: {fileID: 400002, guid: 9bc7c8fe47e2eee4c87e1514433fe2d5,
    type: 3}
  m_PrefabInstance: {fileID: 8075526978389573948}
  m_PrefabAsset: {fileID: 0}
