%YAML 1.1
%TAG !u! tag:unity3d.com,2011:
--- !u!1 &1066807992812260
GameObject:
  m_ObjectHideFlags: 0
  m_CorrespondingSourceObject: {fileID: 0}
  m_PrefabInstance: {fileID: 0}
  m_PrefabAsset: {fileID: 0}
  serializedVersion: 6
  m_Component:
  - component: {fileID: 4913614087459374}
  m_Layer: 0
  m_Name: Base HumanLDigit12
  m_TagString: Untagged
  m_Icon: {fileID: 0}
  m_NavMeshLayer: 0
  m_StaticEditorFlags: 0
  m_IsActive: 1
--- !u!4 &4913614087459374
Transform:
  m_ObjectHideFlags: 0
  m_CorrespondingSourceObject: {fileID: 0}
  m_PrefabInstance: {fileID: 0}
  m_PrefabAsset: {fileID: 0}
  m_GameObject: {fileID: 1066807992812260}
  m_LocalRotation: {x: 0.0000091956, y: -0.08850569, z: 0.00009810298, w: 0.9960757}
  m_LocalPosition: {x: -0.08665927, y: -0.00000006053597, z: -0.0000000055879354}
  m_LocalScale: {x: 0.9999998, y: 0.9999931, z: 1.0000101}
  m_Children:
  - {fileID: 4744907793571146}
  m_Father: {fileID: 4060406955084752}
  m_RootOrder: 0
  m_LocalEulerAnglesHint: {x: 0, y: 0, z: 0}
--- !u!1 &1146569294804154
GameObject:
  m_ObjectHideFlags: 0
  m_CorrespondingSourceObject: {fileID: 0}
  m_PrefabInstance: {fileID: 0}
  m_PrefabAsset: {fileID: 0}
  serializedVersion: 6
  m_Component:
  - component: {fileID: 4026986243083194}
  m_Layer: 0
  m_Name: Base HumanLDigit31
  m_TagString: Untagged
  m_Icon: {fileID: 0}
  m_NavMeshLayer: 0
  m_StaticEditorFlags: 0
  m_IsActive: 1
--- !u!4 &4026986243083194
Transform:
  m_ObjectHideFlags: 0
  m_CorrespondingSourceObject: {fileID: 0}
  m_PrefabInstance: {fileID: 0}
  m_PrefabAsset: {fileID: 0}
  m_GameObject: {fileID: 1146569294804154}
  m_LocalRotation: {x: 0.04653743, y: -0.052804302, z: 0.05262591, w: 0.99613076}
  m_LocalPosition: {x: -0.14844376, y: 0.011549421, z: -0.004599657}
  m_LocalScale: {x: 1, y: 1.0000103, z: 0.9999929}
  m_Children:
  - {fileID: 4044173771113586}
  m_Father: {fileID: 4721497798561002}
  m_RootOrder: 2
  m_LocalEulerAnglesHint: {x: 0, y: 0, z: 0}
--- !u!1 &1175328205657070
GameObject:
  m_ObjectHideFlags: 0
  m_CorrespondingSourceObject: {fileID: 0}
  m_PrefabInstance: {fileID: 0}
  m_PrefabAsset: {fileID: 0}
  serializedVersion: 6
  m_Component:
  - component: {fileID: 4570855092037030}
  m_Layer: 0
  m_Name: Base HumanLDigit42
  m_TagString: Untagged
  m_Icon: {fileID: 0}
  m_NavMeshLayer: 0
  m_StaticEditorFlags: 0
  m_IsActive: 1
--- !u!4 &4570855092037030
Transform:
  m_ObjectHideFlags: 0
  m_CorrespondingSourceObject: {fileID: 0}
  m_PrefabInstance: {fileID: 0}
  m_PrefabAsset: {fileID: 0}
  m_GameObject: {fileID: 1175328205657070}
  m_LocalRotation: {x: -0.0000056197346, y: 0.00008750856, z: 0.13227794, w: 0.99121267}
  m_LocalPosition: {x: -0.045000017, y: 0.000000006519258, z: -0.000000029802322}
  m_LocalScale: {x: 0.9999988, y: 1.0000114, z: 0.99999297}
  m_Children:
  - {fileID: 4986681571162026}
  m_Father: {fileID: 4300761659659956}
  m_RootOrder: 0
  m_LocalEulerAnglesHint: {x: 0, y: 0, z: 0}
--- !u!1 &1302819207083934
GameObject:
  m_ObjectHideFlags: 0
  m_CorrespondingSourceObject: {fileID: 0}
  m_PrefabInstance: {fileID: 0}
  m_PrefabAsset: {fileID: 0}
  serializedVersion: 6
  m_Component:
  - component: {fileID: 4744907793571146}
  m_Layer: 0
  m_Name: Base HumanLDigit13
  m_TagString: Untagged
  m_Icon: {fileID: 0}
  m_NavMeshLayer: 0
  m_StaticEditorFlags: 0
  m_IsActive: 1
--- !u!4 &4744907793571146
Transform:
  m_ObjectHideFlags: 0
  m_CorrespondingSourceObject: {fileID: 0}
  m_PrefabInstance: {fileID: 0}
  m_PrefabAsset: {fileID: 0}
  m_GameObject: {fileID: 1302819207083934}
  m_LocalRotation: {x: -0.00000008423454, y: -0.19693011, z: -0.00000034369432, w: 0.98041755}
  m_LocalPosition: {x: -0.052275904, y: -0.000000059604645, z: -0.0000000037252903}
  m_LocalScale: {x: 0.9999979, y: 0.999993, z: 1.0000119}
  m_Children: []
  m_Father: {fileID: 4913614087459374}
  m_RootOrder: 0
  m_LocalEulerAnglesHint: {x: 0, y: 0, z: 0}
--- !u!1 &1366776886992342
GameObject:
  m_ObjectHideFlags: 0
  m_CorrespondingSourceObject: {fileID: 0}
  m_PrefabInstance: {fileID: 0}
  m_PrefabAsset: {fileID: 0}
  serializedVersion: 6
  m_Component:
  - component: {fileID: 4046131303415896}
  m_Layer: 0
  m_Name: Base HumanLForearm
  m_TagString: Untagged
  m_Icon: {fileID: 0}
  m_NavMeshLayer: 0
  m_StaticEditorFlags: 0
  m_IsActive: 1
--- !u!4 &4046131303415896
Transform:
  m_ObjectHideFlags: 0
  m_CorrespondingSourceObject: {fileID: 0}
  m_PrefabInstance: {fileID: 0}
  m_PrefabAsset: {fileID: 0}
  m_GameObject: {fileID: 1366776886992342}
  m_LocalRotation: {x: 0.27944717, y: 0.661791, z: 0.04594177, w: 0.6941407}
  m_LocalPosition: {x: 0.011431575, y: 0.0700233, z: -0.24521911}
  m_LocalScale: {x: 1.0000002, y: 0.9999983, z: 0.99999994}
  m_Children:
  - {fileID: 4721497798561002}
  m_Father: {fileID: 4936805721944096}
  m_RootOrder: 0
  m_LocalEulerAnglesHint: {x: 0, y: 0, z: 0}
--- !u!1 &1464628881688348
GameObject:
  m_ObjectHideFlags: 0
  m_CorrespondingSourceObject: {fileID: 0}
  m_PrefabInstance: {fileID: 0}
  m_PrefabAsset: {fileID: 0}
  serializedVersion: 6
  m_Component:
  - component: {fileID: 4986681571162026}
  m_Layer: 0
  m_Name: Base HumanLDigit43
  m_TagString: Untagged
  m_Icon: {fileID: 0}
  m_NavMeshLayer: 0
  m_StaticEditorFlags: 0
  m_IsActive: 1
--- !u!4 &4986681571162026
Transform:
  m_ObjectHideFlags: 0
  m_CorrespondingSourceObject: {fileID: 0}
  m_PrefabInstance: {fileID: 0}
  m_PrefabAsset: {fileID: 0}
  m_GameObject: {fileID: 1464628881688348}
  m_LocalRotation: {x: 0.0000024932901, y: -0.000058238857, z: 0.21046366, w: 0.9776017}
  m_LocalPosition: {x: -0.034269035, y: -0.00000011920929, z: 0.000000014901161}
  m_LocalScale: {x: 0.99999523, y: 1.000015, z: 0.99999315}
  m_Children: []
  m_Father: {fileID: 4570855092037030}
  m_RootOrder: 0
  m_LocalEulerAnglesHint: {x: 0, y: 0, z: 0}
--- !u!1 &1499253812202228
GameObject:
  m_ObjectHideFlags: 0
  m_CorrespondingSourceObject: {fileID: 0}
  m_PrefabInstance: {fileID: 0}
  m_PrefabAsset: {fileID: 0}
  serializedVersion: 6
  m_Component:
  - component: {fileID: 4536403166205536}
  m_Layer: 0
  m_Name: Base HumanLDigit21
  m_TagString: Untagged
  m_Icon: {fileID: 0}
  m_NavMeshLayer: 0
  m_StaticEditorFlags: 0
  m_IsActive: 1
--- !u!4 &4536403166205536
Transform:
  m_ObjectHideFlags: 0
  m_CorrespondingSourceObject: {fileID: 0}
  m_PrefabInstance: {fileID: 0}
  m_PrefabAsset: {fileID: 0}
  m_GameObject: {fileID: 1499253812202228}
  m_LocalRotation: {x: 0.1002391, y: 0.04580277, z: 0.051797867, w: 0.99255794}
  m_LocalPosition: {x: -0.13642973, y: 0.0025024433, z: 0.046160135}
  m_LocalScale: {x: 0.9999999, y: 1.0000107, z: 0.99999255}
  m_Children:
  - {fileID: 4840119094956136}
  m_Father: {fileID: 4721497798561002}
  m_RootOrder: 1
  m_LocalEulerAnglesHint: {x: 0, y: 0, z: 0}
--- !u!1 &1538850533821716
GameObject:
  m_ObjectHideFlags: 0
  m_CorrespondingSourceObject: {fileID: 0}
  m_PrefabInstance: {fileID: 0}
  m_PrefabAsset: {fileID: 0}
  serializedVersion: 6
  m_Component:
  - component: {fileID: 4840119094956136}
  m_Layer: 0
  m_Name: Base HumanLDigit22
  m_TagString: Untagged
  m_Icon: {fileID: 0}
  m_NavMeshLayer: 0
  m_StaticEditorFlags: 0
  m_IsActive: 1
--- !u!4 &4840119094956136
Transform:
  m_ObjectHideFlags: 0
  m_CorrespondingSourceObject: {fileID: 0}
  m_PrefabInstance: {fileID: 0}
  m_PrefabAsset: {fileID: 0}
  m_GameObject: {fileID: 1538850533821716}
  m_LocalRotation: {x: 0.00000020828058, y: 0.00000032540362, z: 0.1201415, w: 0.9927568}
  m_LocalPosition: {x: -0.055737495, y: -0.0000000055879354, z: -9.313226e-10}
  m_LocalScale: {x: 0.9999991, y: 1.0000111, z: 0.99999297}
  m_Children:
  - {fileID: 4644991148670952}
  m_Father: {fileID: 4536403166205536}
  m_RootOrder: 0
  m_LocalEulerAnglesHint: {x: 0, y: 0, z: 0}
--- !u!1 &1541653499318006
GameObject:
  m_ObjectHideFlags: 0
  m_CorrespondingSourceObject: {fileID: 0}
  m_PrefabInstance: {fileID: 0}
  m_PrefabAsset: {fileID: 0}
  serializedVersion: 6
  m_Component:
  - component: {fileID: 4644991148670952}
  m_Layer: 0
  m_Name: Base HumanLDigit23
  m_TagString: Untagged
  m_Icon: {fileID: 0}
  m_NavMeshLayer: 0
  m_StaticEditorFlags: 0
  m_IsActive: 1
--- !u!4 &4644991148670952
Transform:
  m_ObjectHideFlags: 0
  m_CorrespondingSourceObject: {fileID: 0}
  m_PrefabInstance: {fileID: 0}
  m_PrefabAsset: {fileID: 0}
  m_GameObject: {fileID: 1541653499318006}
  m_LocalRotation: {x: 0.00000015259793, y: 0.0000003755349, z: 0.24043961, w: 0.97066414}
  m_LocalPosition: {x: -0.046916425, y: 0, z: -0.000000029802322}
  m_LocalScale: {x: 0.99999374, y: 1.0000161, z: 0.999993}
  m_Children: []
  m_Father: {fileID: 4840119094956136}
  m_RootOrder: 0
  m_LocalEulerAnglesHint: {x: 0, y: 0, z: 0}
--- !u!1 &1548682949889014
GameObject:
  m_ObjectHideFlags: 0
  m_CorrespondingSourceObject: {fileID: 0}
  m_PrefabInstance: {fileID: 0}
  m_PrefabAsset: {fileID: 0}
  serializedVersion: 6
  m_Component:
  - component: {fileID: 4139270945062374}
  - component: {fileID: 137727316797574968}
  m_Layer: 0
  m_Name: Object001
  m_TagString: Untagged
  m_Icon: {fileID: 0}
  m_NavMeshLayer: 0
  m_StaticEditorFlags: 0
  m_IsActive: 1
--- !u!4 &4139270945062374
Transform:
  m_ObjectHideFlags: 0
  m_CorrespondingSourceObject: {fileID: 0}
  m_PrefabInstance: {fileID: 0}
  m_PrefabAsset: {fileID: 0}
  m_GameObject: {fileID: 1548682949889014}
  m_LocalRotation: {x: -0.7071068, y: 0, z: -0, w: 0.7071068}
  m_LocalPosition: {x: -0, y: 0, z: 0}
  m_LocalScale: {x: 1, y: 1, z: 1}
  m_Children: []
  m_Father: {fileID: 4936805721944096}
  m_RootOrder: 1
  m_LocalEulerAnglesHint: {x: 0, y: 0, z: 0}
--- !u!137 &137727316797574968
SkinnedMeshRenderer:
  m_ObjectHideFlags: 0
  m_CorrespondingSourceObject: {fileID: 0}
  m_PrefabInstance: {fileID: 0}
  m_PrefabAsset: {fileID: 0}
  m_GameObject: {fileID: 1548682949889014}
  m_Enabled: 1
  m_CastShadows: 1
  m_ReceiveShadows: 1
  m_DynamicOccludee: 1
  m_MotionVectors: 1
  m_LightProbeUsage: 1
  m_ReflectionProbeUsage: 1
  m_RenderingLayerMask: 1
  m_RendererPriority: 0
  m_Materials:
  - {fileID: 2100000, guid: 03df9978c9519314f823ffb5610a2018, type: 2}
  m_StaticBatchInfo:
    firstSubMesh: 0
    subMeshCount: 0
  m_StaticBatchRoot: {fileID: 0}
  m_ProbeAnchor: {fileID: 0}
  m_LightProbeVolumeOverride: {fileID: 0}
  m_ScaleInLightmap: 1
  m_PreserveUVs: 0
  m_IgnoreNormalsForChartDetection: 0
  m_ImportantGI: 0
  m_StitchLightmapSeams: 0
  m_SelectedEditorRenderState: 3
  m_MinimumChartSize: 4
  m_AutoUVMaxDistance: 0.5
  m_AutoUVMaxAngle: 89
  m_LightmapParameters: {fileID: 0}
  m_SortingLayerID: 0
  m_SortingLayer: 0
  m_SortingOrder: 0
  serializedVersion: 2
  m_Quality: 0
  m_UpdateWhenOffscreen: 0
  m_SkinnedMotionVectors: 1
  m_Mesh: {fileID: 4300000, guid: d07f266b30984d044bb2a54b09f79618, type: 3}
  m_Bones:
  - {fileID: 4913614087459374}
  - {fileID: 4744907793571146}
  - {fileID: 4060406955084752}
  - {fileID: 4721497798561002}
  - {fileID: 4840119094956136}
  - {fileID: 4300761659659956}
  - {fileID: 4026986243083194}
  - {fileID: 4536403166205536}
  - {fileID: 4044173771113586}
  - {fileID: 4277480858712236}
  - {fileID: 4570855092037030}
  - {fileID: 4644991148670952}
  - {fileID: 4986681571162026}
  m_BlendShapeWeights: []
  m_RootBone: {fileID: 4721497798561002}
  m_AABB:
    m_Center: {x: -0.16172412, y: -0.031498592, z: 0.0067539215}
    m_Extent: {x: 0.18737537, y: 0.10057695, z: 0.122084096}
  m_DirtyAABB: 0
--- !u!1 &1599515451087526
GameObject:
  m_ObjectHideFlags: 0
  m_CorrespondingSourceObject: {fileID: 0}
  m_PrefabInstance: {fileID: 0}
  m_PrefabAsset: {fileID: 0}
  serializedVersion: 6
  m_Component:
  - component: {fileID: 4277480858712236}
  m_Layer: 0
  m_Name: Base HumanLDigit33
  m_TagString: Untagged
  m_Icon: {fileID: 0}
  m_NavMeshLayer: 0
  m_StaticEditorFlags: 0
  m_IsActive: 1
--- !u!4 &4277480858712236
Transform:
  m_ObjectHideFlags: 0
  m_CorrespondingSourceObject: {fileID: 0}
  m_PrefabInstance: {fileID: 0}
  m_PrefabAsset: {fileID: 0}
  m_GameObject: {fileID: 1599515451087526}
  m_LocalRotation: {x: -0.000000088115904, y: 0.00000032769, z: 0.21701896, w: 0.97616744}
  m_LocalPosition: {x: -0.05303508, y: 0.000000117346644, z: -0.0000000018626451}
  m_LocalScale: {x: 0.99999505, y: 1.0000153, z: 0.99999315}
  m_Children: []
  m_Father: {fileID: 4044173771113586}
  m_RootOrder: 0
  m_LocalEulerAnglesHint: {x: 0, y: 0, z: 0}
--- !u!1 &1654421092583258
GameObject:
  m_ObjectHideFlags: 0
  m_CorrespondingSourceObject: {fileID: 0}
  m_PrefabInstance: {fileID: 0}
  m_PrefabAsset: {fileID: 0}
  serializedVersion: 6
  m_Component:
  - component: {fileID: 4060406955084752}
  m_Layer: 0
  m_Name: Base HumanLDigit11
  m_TagString: Untagged
  m_Icon: {fileID: 0}
  m_NavMeshLayer: 0
  m_StaticEditorFlags: 0
  m_IsActive: 1
--- !u!4 &4060406955084752
Transform:
  m_ObjectHideFlags: 0
  m_CorrespondingSourceObject: {fileID: 0}
  m_PrefabInstance: {fileID: 0}
  m_PrefabAsset: {fileID: 0}
  m_GameObject: {fileID: 1654421092583258}
  m_LocalRotation: {x: 0.38197342, y: 0.29908133, z: 0.22467446, w: 0.8450847}
  m_LocalPosition: {x: -0.018920302, y: -0.0039777737, z: 0.049928755}
  m_LocalScale: {x: 0.99999785, y: 1.0000025, z: 1.0000029}
  m_Children:
  - {fileID: 4913614087459374}
  m_Father: {fileID: 4721497798561002}
  m_RootOrder: 0
  m_LocalEulerAnglesHint: {x: 0, y: 0, z: 0}
--- !u!1 &1731354574331558
GameObject:
  m_ObjectHideFlags: 0
  m_CorrespondingSourceObject: {fileID: 0}
  m_PrefabInstance: {fileID: 0}
  m_PrefabAsset: {fileID: 0}
  serializedVersion: 6
  m_Component:
  - component: {fileID: 4721497798561002}
  m_Layer: 0
  m_Name: Base HumanLPalm
  m_TagString: Untagged
  m_Icon: {fileID: 0}
  m_NavMeshLayer: 0
  m_StaticEditorFlags: 0
  m_IsActive: 1
--- !u!4 &4721497798561002
Transform:
  m_ObjectHideFlags: 0
  m_CorrespondingSourceObject: {fileID: 0}
  m_PrefabInstance: {fileID: 0}
  m_PrefabAsset: {fileID: 0}
  m_GameObject: {fileID: 1731354574331558}
  m_LocalRotation: {x: -0.3854256, y: 0.06671778, z: -0.4182119, w: 0.81981385}
  m_LocalPosition: {x: -0.26467752, y: -0.000000011175871, z: -9.313226e-10}
  m_LocalScale: {x: 1.000001, y: 1.0000085, z: 0.9999938}
  m_Children:
  - {fileID: 4060406955084752}
  - {fileID: 4536403166205536}
  - {fileID: 4026986243083194}
  - {fileID: 4300761659659956}
  m_Father: {fileID: 4046131303415896}
  m_RootOrder: 0
  m_LocalEulerAnglesHint: {x: 0, y: 0, z: 0}
--- !u!1 &1775554372300308
GameObject:
  m_ObjectHideFlags: 0
  m_CorrespondingSourceObject: {fileID: 0}
  m_PrefabInstance: {fileID: 0}
  m_PrefabAsset: {fileID: 0}
  serializedVersion: 6
  m_Component:
  - component: {fileID: 4936805721944096}
  - component: {fileID: 95387282411632530}
  m_Layer: 0
  m_Name: Left Hand Pink
  m_TagString: Untagged
  m_Icon: {fileID: 0}
  m_NavMeshLayer: 0
  m_StaticEditorFlags: 0
  m_IsActive: 1
--- !u!4 &4936805721944096
Transform:
  m_ObjectHideFlags: 0
  m_CorrespondingSourceObject: {fileID: 0}
  m_PrefabInstance: {fileID: 0}
  m_PrefabAsset: {fileID: 0}
  m_GameObject: {fileID: 1775554372300308}
  m_LocalRotation: {x: 0, y: 0, z: 0, w: 1}
  m_LocalPosition: {x: 0, y: 0, z: 0}
  m_LocalScale: {x: 1, y: 1, z: 1}
  m_Children:
  - {fileID: 4046131303415896}
  - {fileID: 4139270945062374}
  m_Father: {fileID: 0}
  m_RootOrder: 0
  m_LocalEulerAnglesHint: {x: 0, y: 0, z: 0}
--- !u!95 &95387282411632530
Animator:
  serializedVersion: 3
  m_ObjectHideFlags: 0
  m_CorrespondingSourceObject: {fileID: 0}
  m_PrefabInstance: {fileID: 0}
  m_PrefabAsset: {fileID: 0}
  m_GameObject: {fileID: 1775554372300308}
  m_Enabled: 1
  m_Avatar: {fileID: 9000000, guid: d07f266b30984d044bb2a54b09f79618, type: 3}
  m_Controller: {fileID: 0}
  m_CullingMode: 1
  m_UpdateMode: 0
  m_ApplyRootMotion: 0
  m_LinearVelocityBlending: 0
  m_WarningMessage: 
  m_HasTransformHierarchy: 1
  m_AllowConstantClipSamplingOptimization: 1
  m_KeepAnimatorControllerStateOnDisable: 0
--- !u!1 &1831122244684938
GameObject:
  m_ObjectHideFlags: 0
  m_CorrespondingSourceObject: {fileID: 0}
  m_PrefabInstance: {fileID: 0}
  m_PrefabAsset: {fileID: 0}
  serializedVersion: 6
  m_Component:
  - component: {fileID: 4044173771113586}
  m_Layer: 0
  m_Name: Base HumanLDigit32
  m_TagString: Untagged
  m_Icon: {fileID: 0}
  m_NavMeshLayer: 0
  m_StaticEditorFlags: 0
  m_IsActive: 1
--- !u!4 &4044173771113586
Transform:
  m_ObjectHideFlags: 0
  m_CorrespondingSourceObject: {fileID: 0}
  m_PrefabInstance: {fileID: 0}
  m_PrefabAsset: {fileID: 0}
  m_GameObject: {fileID: 1831122244684938}
  m_LocalRotation: {x: 0.0000001883466, y: 0.000000688602, z: 0.051434435, w: 0.9986764}
  m_LocalPosition: {x: -0.0642913, y: 0.0000000055879354, z: -0.0000000018626451}
  m_LocalScale: {x: 0.9999998, y: 1.0000103, z: 0.99999315}
  m_Children:
  - {fileID: 4277480858712236}
  m_Father: {fileID: 4026986243083194}
  m_RootOrder: 0
  m_LocalEulerAnglesHint: {x: 0, y: 0, z: 0}
--- !u!1 &1879552241044166
GameObject:
  m_ObjectHideFlags: 0
  m_CorrespondingSourceObject: {fileID: 0}
  m_PrefabInstance: {fileID: 0}
  m_PrefabAsset: {fileID: 0}
  serializedVersion: 6
  m_Component:
  - component: {fileID: 4300761659659956}
  m_Layer: 0
  m_Name: Base HumanLDigit41
  m_TagString: Untagged
  m_Icon: {fileID: 0}
  m_NavMeshLayer: 0
  m_StaticEditorFlags: 0
  m_IsActive: 1
--- !u!4 &4300761659659956
Transform:
  m_ObjectHideFlags: 0
  m_CorrespondingSourceObject: {fileID: 0}
  m_PrefabInstance: {fileID: 0}
  m_PrefabAsset: {fileID: 0}
  m_GameObject: {fileID: 1879552241044166}
  m_LocalRotation: {x: 0.0011998428, y: -0.14836684, z: -0.008004149, w: 0.9888993}
  m_LocalPosition: {x: -0.14900285, y: 0.010771035, z: -0.053693254}
  m_LocalScale: {x: 1.0000006, y: 1.00001, z: 0.99999243}
  m_Children:
  - {fileID: 4570855092037030}
  m_Father: {fileID: 4721497798561002}
  m_RootOrder: 3
  m_LocalEulerAnglesHint: {x: 0, y: 0, z: 0}
