%YAML 1.1
%TAG !u! tag:unity3d.com,2011:
--- !u!1 &1030388314429654
GameObject:
  m_ObjectHideFlags: 0
  m_CorrespondingSourceObject: {fileID: 0}
  m_PrefabInstance: {fileID: 0}
  m_PrefabAsset: {fileID: 0}
  serializedVersion: 6
  m_Component:
  - component: {fileID: 4432016039810268}
  m_Layer: 0
  m_Name: Base HumanLDigit11
  m_TagString: Untagged
  m_Icon: {fileID: 0}
  m_NavMeshLayer: 0
  m_StaticEditorFlags: 0
  m_IsActive: 1
--- !u!4 &4432016039810268
Transform:
  m_ObjectHideFlags: 0
  m_CorrespondingSourceObject: {fileID: 0}
  m_PrefabInstance: {fileID: 0}
  m_PrefabAsset: {fileID: 0}
  m_GameObject: {fileID: 1030388314429654}
  m_LocalRotation: {x: 0.38197342, y: 0.29908133, z: 0.22467446, w: 0.8450847}
  m_LocalPosition: {x: -0.018920302, y: -0.0039777737, z: 0.049928755}
  m_LocalScale: {x: 0.99999785, y: 1.0000025, z: 1.0000029}
  m_Children:
  - {fileID: 4476248929241676}
  m_Father: {fileID: 4439020284559860}
  m_RootOrder: 0
  m_LocalEulerAnglesHint: {x: 0, y: 0, z: 0}
--- !u!1 &1076089718361850
GameObject:
  m_ObjectHideFlags: 0
  m_CorrespondingSourceObject: {fileID: 0}
  m_PrefabInstance: {fileID: 0}
  m_PrefabAsset: {fileID: 0}
  serializedVersion: 6
  m_Component:
  - component: {fileID: 4135539771826138}
  m_Layer: 0
  m_Name: Base HumanLDigit43
  m_TagString: Untagged
  m_Icon: {fileID: 0}
  m_NavMeshLayer: 0
  m_StaticEditorFlags: 0
  m_IsActive: 1
--- !u!4 &4135539771826138
Transform:
  m_ObjectHideFlags: 0
  m_CorrespondingSourceObject: {fileID: 0}
  m_PrefabInstance: {fileID: 0}
  m_PrefabAsset: {fileID: 0}
  m_GameObject: {fileID: 1076089718361850}
  m_LocalRotation: {x: 0.0000024932901, y: -0.000058238857, z: 0.21046366, w: 0.9776017}
  m_LocalPosition: {x: -0.034269035, y: -0.00000011920929, z: 0.000000014901161}
  m_LocalScale: {x: 0.99999523, y: 1.000015, z: 0.99999315}
  m_Children: []
  m_Father: {fileID: 4101707265849578}
  m_RootOrder: 0
  m_LocalEulerAnglesHint: {x: 0, y: 0, z: 0}
--- !u!1 &1134879280360244
GameObject:
  m_ObjectHideFlags: 0
  m_CorrespondingSourceObject: {fileID: 0}
  m_PrefabInstance: {fileID: 0}
  m_PrefabAsset: {fileID: 0}
  serializedVersion: 6
  m_Component:
  - component: {fileID: 4764849893999056}
  m_Layer: 0
  m_Name: Base HumanLDigit33
  m_TagString: Untagged
  m_Icon: {fileID: 0}
  m_NavMeshLayer: 0
  m_StaticEditorFlags: 0
  m_IsActive: 1
--- !u!4 &4764849893999056
Transform:
  m_ObjectHideFlags: 0
  m_CorrespondingSourceObject: {fileID: 0}
  m_PrefabInstance: {fileID: 0}
  m_PrefabAsset: {fileID: 0}
  m_GameObject: {fileID: 1134879280360244}
  m_LocalRotation: {x: -0.000000088115904, y: 0.00000032769, z: 0.21701896, w: 0.97616744}
  m_LocalPosition: {x: -0.05303508, y: 0.000000117346644, z: -0.0000000018626451}
  m_LocalScale: {x: 0.99999505, y: 1.0000153, z: 0.99999315}
  m_Children: []
  m_Father: {fileID: 4226916190734792}
  m_RootOrder: 0
  m_LocalEulerAnglesHint: {x: 0, y: 0, z: 0}
--- !u!1 &1176453460666828
GameObject:
  m_ObjectHideFlags: 0
  m_CorrespondingSourceObject: {fileID: 0}
  m_PrefabInstance: {fileID: 0}
  m_PrefabAsset: {fileID: 0}
  serializedVersion: 6
  m_Component:
  - component: {fileID: 4885986253273936}
  m_Layer: 0
  m_Name: Base HumanLDigit22
  m_TagString: Untagged
  m_Icon: {fileID: 0}
  m_NavMeshLayer: 0
  m_StaticEditorFlags: 0
  m_IsActive: 1
--- !u!4 &4885986253273936
Transform:
  m_ObjectHideFlags: 0
  m_CorrespondingSourceObject: {fileID: 0}
  m_PrefabInstance: {fileID: 0}
  m_PrefabAsset: {fileID: 0}
  m_GameObject: {fileID: 1176453460666828}
  m_LocalRotation: {x: 0.00000020828058, y: 0.00000032540362, z: 0.1201415, w: 0.9927568}
  m_LocalPosition: {x: -0.055737495, y: -0.0000000055879354, z: -9.313226e-10}
  m_LocalScale: {x: 0.9999991, y: 1.0000111, z: 0.99999297}
  m_Children:
  - {fileID: 4639985636150488}
  m_Father: {fileID: 4650138950498024}
  m_RootOrder: 0
  m_LocalEulerAnglesHint: {x: 0, y: 0, z: 0}
--- !u!1 &1211618189771342
GameObject:
  m_ObjectHideFlags: 0
  m_CorrespondingSourceObject: {fileID: 0}
  m_PrefabInstance: {fileID: 0}
  m_PrefabAsset: {fileID: 0}
  serializedVersion: 6
  m_Component:
  - component: {fileID: 4117567723544182}
  - component: {fileID: 137866579047467534}
  m_Layer: 0
  m_Name: Object001
  m_TagString: Untagged
  m_Icon: {fileID: 0}
  m_NavMeshLayer: 0
  m_StaticEditorFlags: 0
  m_IsActive: 1
--- !u!4 &4117567723544182
Transform:
  m_ObjectHideFlags: 0
  m_CorrespondingSourceObject: {fileID: 0}
  m_PrefabInstance: {fileID: 0}
  m_PrefabAsset: {fileID: 0}
  m_GameObject: {fileID: 1211618189771342}
  m_LocalRotation: {x: -0.7071068, y: 0, z: -0, w: 0.7071068}
  m_LocalPosition: {x: -0, y: 0, z: 0}
  m_LocalScale: {x: 1, y: 1, z: 1}
  m_Children: []
  m_Father: {fileID: 4014458085930926}
  m_RootOrder: 1
  m_LocalEulerAnglesHint: {x: 0, y: 0, z: 0}
--- !u!137 &137866579047467534
SkinnedMeshRenderer:
  m_ObjectHideFlags: 0
  m_CorrespondingSourceObject: {fileID: 0}
  m_PrefabInstance: {fileID: 0}
  m_PrefabAsset: {fileID: 0}
  m_GameObject: {fileID: 1211618189771342}
  m_Enabled: 1
  m_CastShadows: 1
  m_ReceiveShadows: 1
  m_DynamicOccludee: 1
  m_MotionVectors: 1
  m_LightProbeUsage: 1
  m_ReflectionProbeUsage: 1
  m_RenderingLayerMask: 1
  m_RendererPriority: 0
  m_Materials:
  - {fileID: 2100000, guid: 7bde35067a2f5c6499f74a00e7f7c4e0, type: 2}
  m_StaticBatchInfo:
    firstSubMesh: 0
    subMeshCount: 0
  m_StaticBatchRoot: {fileID: 0}
  m_ProbeAnchor: {fileID: 0}
  m_LightProbeVolumeOverride: {fileID: 0}
  m_ScaleInLightmap: 1
  m_PreserveUVs: 0
  m_IgnoreNormalsForChartDetection: 0
  m_ImportantGI: 0
  m_StitchLightmapSeams: 0
  m_SelectedEditorRenderState: 3
  m_MinimumChartSize: 4
  m_AutoUVMaxDistance: 0.5
  m_AutoUVMaxAngle: 89
  m_LightmapParameters: {fileID: 0}
  m_SortingLayerID: 0
  m_SortingLayer: 0
  m_SortingOrder: 0
  serializedVersion: 2
  m_Quality: 0
  m_UpdateWhenOffscreen: 0
  m_SkinnedMotionVectors: 1
  m_Mesh: {fileID: 4300000, guid: d07f266b30984d044bb2a54b09f79618, type: 3}
  m_Bones:
  - {fileID: 4476248929241676}
  - {fileID: 4903803081414384}
  - {fileID: 4432016039810268}
  - {fileID: 4439020284559860}
  - {fileID: 4885986253273936}
  - {fileID: 4827967908131118}
  - {fileID: 4350196558018614}
  - {fileID: 4650138950498024}
  - {fileID: 4226916190734792}
  - {fileID: 4764849893999056}
  - {fileID: 4101707265849578}
  - {fileID: 4639985636150488}
  - {fileID: 4135539771826138}
  m_BlendShapeWeights: []
  m_RootBone: {fileID: 4439020284559860}
  m_AABB:
    m_Center: {x: -0.16172412, y: -0.031498592, z: 0.0067539215}
    m_Extent: {x: 0.18737537, y: 0.10057695, z: 0.122084096}
  m_DirtyAABB: 0
--- !u!1 &1370093771566512
GameObject:
  m_ObjectHideFlags: 0
  m_CorrespondingSourceObject: {fileID: 0}
  m_PrefabInstance: {fileID: 0}
  m_PrefabAsset: {fileID: 0}
  serializedVersion: 6
  m_Component:
  - component: {fileID: 4827967908131118}
  m_Layer: 0
  m_Name: Base HumanLDigit41
  m_TagString: Untagged
  m_Icon: {fileID: 0}
  m_NavMeshLayer: 0
  m_StaticEditorFlags: 0
  m_IsActive: 1
--- !u!4 &4827967908131118
Transform:
  m_ObjectHideFlags: 0
  m_CorrespondingSourceObject: {fileID: 0}
  m_PrefabInstance: {fileID: 0}
  m_PrefabAsset: {fileID: 0}
  m_GameObject: {fileID: 1370093771566512}
  m_LocalRotation: {x: 0.0011998428, y: -0.14836684, z: -0.008004149, w: 0.9888993}
  m_LocalPosition: {x: -0.14900285, y: 0.010771035, z: -0.053693254}
  m_LocalScale: {x: 1.0000006, y: 1.00001, z: 0.99999243}
  m_Children:
  - {fileID: 4101707265849578}
  m_Father: {fileID: 4439020284559860}
  m_RootOrder: 3
  m_LocalEulerAnglesHint: {x: 0, y: 0, z: 0}
--- !u!1 &1648766776030842
GameObject:
  m_ObjectHideFlags: 0
  m_CorrespondingSourceObject: {fileID: 0}
  m_PrefabInstance: {fileID: 0}
  m_PrefabAsset: {fileID: 0}
  serializedVersion: 6
  m_Component:
  - component: {fileID: 4350196558018614}
  m_Layer: 0
  m_Name: Base HumanLDigit31
  m_TagString: Untagged
  m_Icon: {fileID: 0}
  m_NavMeshLayer: 0
  m_StaticEditorFlags: 0
  m_IsActive: 1
--- !u!4 &4350196558018614
Transform:
  m_ObjectHideFlags: 0
  m_CorrespondingSourceObject: {fileID: 0}
  m_PrefabInstance: {fileID: 0}
  m_PrefabAsset: {fileID: 0}
  m_GameObject: {fileID: 1648766776030842}
  m_LocalRotation: {x: 0.04653743, y: -0.052804302, z: 0.05262591, w: 0.99613076}
  m_LocalPosition: {x: -0.14844376, y: 0.011549421, z: -0.004599657}
  m_LocalScale: {x: 1, y: 1.0000103, z: 0.9999929}
  m_Children:
  - {fileID: 4226916190734792}
  m_Father: {fileID: 4439020284559860}
  m_RootOrder: 2
  m_LocalEulerAnglesHint: {x: 0, y: 0, z: 0}
--- !u!1 &1667537834225452
GameObject:
  m_ObjectHideFlags: 0
  m_CorrespondingSourceObject: {fileID: 0}
  m_PrefabInstance: {fileID: 0}
  m_PrefabAsset: {fileID: 0}
  serializedVersion: 6
  m_Component:
  - component: {fileID: 4639985636150488}
  m_Layer: 0
  m_Name: Base HumanLDigit23
  m_TagString: Untagged
  m_Icon: {fileID: 0}
  m_NavMeshLayer: 0
  m_StaticEditorFlags: 0
  m_IsActive: 1
--- !u!4 &4639985636150488
Transform:
  m_ObjectHideFlags: 0
  m_CorrespondingSourceObject: {fileID: 0}
  m_PrefabInstance: {fileID: 0}
  m_PrefabAsset: {fileID: 0}
  m_GameObject: {fileID: 1667537834225452}
  m_LocalRotation: {x: 0.00000015259793, y: 0.0000003755349, z: 0.24043961, w: 0.97066414}
  m_LocalPosition: {x: -0.046916425, y: 0, z: -0.000000029802322}
  m_LocalScale: {x: 0.99999374, y: 1.0000161, z: 0.999993}
  m_Children: []
  m_Father: {fileID: 4885986253273936}
  m_RootOrder: 0
  m_LocalEulerAnglesHint: {x: 0, y: 0, z: 0}
--- !u!1 &1676857111900396
GameObject:
  m_ObjectHideFlags: 0
  m_CorrespondingSourceObject: {fileID: 0}
  m_PrefabInstance: {fileID: 0}
  m_PrefabAsset: {fileID: 0}
  serializedVersion: 6
  m_Component:
  - component: {fileID: 4014458085930926}
  - component: {fileID: 95514166698910952}
  m_Layer: 0
  m_Name: Left Hand Yellow
  m_TagString: Untagged
  m_Icon: {fileID: 0}
  m_NavMeshLayer: 0
  m_StaticEditorFlags: 0
  m_IsActive: 1
--- !u!4 &4014458085930926
Transform:
  m_ObjectHideFlags: 0
  m_CorrespondingSourceObject: {fileID: 0}
  m_PrefabInstance: {fileID: 0}
  m_PrefabAsset: {fileID: 0}
  m_GameObject: {fileID: 1676857111900396}
  m_LocalRotation: {x: 0, y: 0, z: 0, w: 1}
  m_LocalPosition: {x: 0, y: 0, z: 0}
  m_LocalScale: {x: 1, y: 1, z: 1}
  m_Children:
  - {fileID: 4260894636851244}
  - {fileID: 4117567723544182}
  m_Father: {fileID: 0}
  m_RootOrder: 0
  m_LocalEulerAnglesHint: {x: 0, y: 0, z: 0}
--- !u!95 &95514166698910952
Animator:
  serializedVersion: 3
  m_ObjectHideFlags: 0
  m_CorrespondingSourceObject: {fileID: 0}
  m_PrefabInstance: {fileID: 0}
  m_PrefabAsset: {fileID: 0}
  m_GameObject: {fileID: 1676857111900396}
  m_Enabled: 1
  m_Avatar: {fileID: 9000000, guid: d07f266b30984d044bb2a54b09f79618, type: 3}
  m_Controller: {fileID: 0}
  m_CullingMode: 1
  m_UpdateMode: 0
  m_ApplyRootMotion: 0
  m_LinearVelocityBlending: 0
  m_WarningMessage: 
  m_HasTransformHierarchy: 1
  m_AllowConstantClipSamplingOptimization: 1
  m_KeepAnimatorControllerStateOnDisable: 0
--- !u!1 &1724999144592138
GameObject:
  m_ObjectHideFlags: 0
  m_CorrespondingSourceObject: {fileID: 0}
  m_PrefabInstance: {fileID: 0}
  m_PrefabAsset: {fileID: 0}
  serializedVersion: 6
  m_Component:
  - component: {fileID: 4439020284559860}
  m_Layer: 0
  m_Name: Base HumanLPalm
  m_TagString: Untagged
  m_Icon: {fileID: 0}
  m_NavMeshLayer: 0
  m_StaticEditorFlags: 0
  m_IsActive: 1
--- !u!4 &4439020284559860
Transform:
  m_ObjectHideFlags: 0
  m_CorrespondingSourceObject: {fileID: 0}
  m_PrefabInstance: {fileID: 0}
  m_PrefabAsset: {fileID: 0}
  m_GameObject: {fileID: 1724999144592138}
  m_LocalRotation: {x: -0.3854256, y: 0.06671778, z: -0.4182119, w: 0.81981385}
  m_LocalPosition: {x: -0.26467752, y: -0.000000011175871, z: -9.313226e-10}
  m_LocalScale: {x: 1.000001, y: 1.0000085, z: 0.9999938}
  m_Children:
  - {fileID: 4432016039810268}
  - {fileID: 4650138950498024}
  - {fileID: 4350196558018614}
  - {fileID: 4827967908131118}
  m_Father: {fileID: 4260894636851244}
  m_RootOrder: 0
  m_LocalEulerAnglesHint: {x: 0, y: 0, z: 0}
--- !u!1 &1763253876234566
GameObject:
  m_ObjectHideFlags: 0
  m_CorrespondingSourceObject: {fileID: 0}
  m_PrefabInstance: {fileID: 0}
  m_PrefabAsset: {fileID: 0}
  serializedVersion: 6
  m_Component:
  - component: {fileID: 4226916190734792}
  m_Layer: 0
  m_Name: Base HumanLDigit32
  m_TagString: Untagged
  m_Icon: {fileID: 0}
  m_NavMeshLayer: 0
  m_StaticEditorFlags: 0
  m_IsActive: 1
--- !u!4 &4226916190734792
Transform:
  m_ObjectHideFlags: 0
  m_CorrespondingSourceObject: {fileID: 0}
  m_PrefabInstance: {fileID: 0}
  m_PrefabAsset: {fileID: 0}
  m_GameObject: {fileID: 1763253876234566}
  m_LocalRotation: {x: 0.0000001883466, y: 0.000000688602, z: 0.051434435, w: 0.9986764}
  m_LocalPosition: {x: -0.0642913, y: 0.0000000055879354, z: -0.0000000018626451}
  m_LocalScale: {x: 0.9999998, y: 1.0000103, z: 0.99999315}
  m_Children:
  - {fileID: 4764849893999056}
  m_Father: {fileID: 4350196558018614}
  m_RootOrder: 0
  m_LocalEulerAnglesHint: {x: 0, y: 0, z: 0}
--- !u!1 &1826928659988492
GameObject:
  m_ObjectHideFlags: 0
  m_CorrespondingSourceObject: {fileID: 0}
  m_PrefabInstance: {fileID: 0}
  m_PrefabAsset: {fileID: 0}
  serializedVersion: 6
  m_Component:
  - component: {fileID: 4101707265849578}
  m_Layer: 0
  m_Name: Base HumanLDigit42
  m_TagString: Untagged
  m_Icon: {fileID: 0}
  m_NavMeshLayer: 0
  m_StaticEditorFlags: 0
  m_IsActive: 1
--- !u!4 &4101707265849578
Transform:
  m_ObjectHideFlags: 0
  m_CorrespondingSourceObject: {fileID: 0}
  m_PrefabInstance: {fileID: 0}
  m_PrefabAsset: {fileID: 0}
  m_GameObject: {fileID: 1826928659988492}
  m_LocalRotation: {x: -0.0000056197346, y: 0.00008750856, z: 0.13227794, w: 0.99121267}
  m_LocalPosition: {x: -0.045000017, y: 0.000000006519258, z: -0.000000029802322}
  m_LocalScale: {x: 0.9999988, y: 1.0000114, z: 0.99999297}
  m_Children:
  - {fileID: 4135539771826138}
  m_Father: {fileID: 4827967908131118}
  m_RootOrder: 0
  m_LocalEulerAnglesHint: {x: 0, y: 0, z: 0}
--- !u!1 &1837463650569682
GameObject:
  m_ObjectHideFlags: 0
  m_CorrespondingSourceObject: {fileID: 0}
  m_PrefabInstance: {fileID: 0}
  m_PrefabAsset: {fileID: 0}
  serializedVersion: 6
  m_Component:
  - component: {fileID: 4650138950498024}
  m_Layer: 0
  m_Name: Base HumanLDigit21
  m_TagString: Untagged
  m_Icon: {fileID: 0}
  m_NavMeshLayer: 0
  m_StaticEditorFlags: 0
  m_IsActive: 1
--- !u!4 &4650138950498024
Transform:
  m_ObjectHideFlags: 0
  m_CorrespondingSourceObject: {fileID: 0}
  m_PrefabInstance: {fileID: 0}
  m_PrefabAsset: {fileID: 0}
  m_GameObject: {fileID: 1837463650569682}
  m_LocalRotation: {x: 0.1002391, y: 0.04580277, z: 0.051797867, w: 0.99255794}
  m_LocalPosition: {x: -0.13642973, y: 0.0025024433, z: 0.046160135}
  m_LocalScale: {x: 0.9999999, y: 1.0000107, z: 0.99999255}
  m_Children:
  - {fileID: 4885986253273936}
  m_Father: {fileID: 4439020284559860}
  m_RootOrder: 1
  m_LocalEulerAnglesHint: {x: 0, y: 0, z: 0}
--- !u!1 &1856167554325630
GameObject:
  m_ObjectHideFlags: 0
  m_CorrespondingSourceObject: {fileID: 0}
  m_PrefabInstance: {fileID: 0}
  m_PrefabAsset: {fileID: 0}
  serializedVersion: 6
  m_Component:
  - component: {fileID: 4476248929241676}
  m_Layer: 0
  m_Name: Base HumanLDigit12
  m_TagString: Untagged
  m_Icon: {fileID: 0}
  m_NavMeshLayer: 0
  m_StaticEditorFlags: 0
  m_IsActive: 1
--- !u!4 &4476248929241676
Transform:
  m_ObjectHideFlags: 0
  m_CorrespondingSourceObject: {fileID: 0}
  m_PrefabInstance: {fileID: 0}
  m_PrefabAsset: {fileID: 0}
  m_GameObject: {fileID: 1856167554325630}
  m_LocalRotation: {x: 0.0000091956, y: -0.08850569, z: 0.00009810298, w: 0.9960757}
  m_LocalPosition: {x: -0.08665927, y: -0.00000006053597, z: -0.0000000055879354}
  m_LocalScale: {x: 0.9999998, y: 0.9999931, z: 1.0000101}
  m_Children:
  - {fileID: 4903803081414384}
  m_Father: {fileID: 4432016039810268}
  m_RootOrder: 0
  m_LocalEulerAnglesHint: {x: 0, y: 0, z: 0}
--- !u!1 &1938691972946062
GameObject:
  m_ObjectHideFlags: 0
  m_CorrespondingSourceObject: {fileID: 0}
  m_PrefabInstance: {fileID: 0}
  m_PrefabAsset: {fileID: 0}
  serializedVersion: 6
  m_Component:
  - component: {fileID: 4903803081414384}
  m_Layer: 0
  m_Name: Base HumanLDigit13
  m_TagString: Untagged
  m_Icon: {fileID: 0}
  m_NavMeshLayer: 0
  m_StaticEditorFlags: 0
  m_IsActive: 1
--- !u!4 &4903803081414384
Transform:
  m_ObjectHideFlags: 0
  m_CorrespondingSourceObject: {fileID: 0}
  m_PrefabInstance: {fileID: 0}
  m_PrefabAsset: {fileID: 0}
  m_GameObject: {fileID: 1938691972946062}
  m_LocalRotation: {x: -0.00000008423454, y: -0.19693011, z: -0.00000034369432, w: 0.98041755}
  m_LocalPosition: {x: -0.052275904, y: -0.000000059604645, z: -0.0000000037252903}
  m_LocalScale: {x: 0.9999979, y: 0.999993, z: 1.0000119}
  m_Children: []
  m_Father: {fileID: 4476248929241676}
  m_RootOrder: 0
  m_LocalEulerAnglesHint: {x: 0, y: 0, z: 0}
--- !u!1 &1982278331065760
GameObject:
  m_ObjectHideFlags: 0
  m_CorrespondingSourceObject: {fileID: 0}
  m_PrefabInstance: {fileID: 0}
  m_PrefabAsset: {fileID: 0}
  serializedVersion: 6
  m_Component:
  - component: {fileID: 4260894636851244}
  m_Layer: 0
  m_Name: Base HumanLForearm
  m_TagString: Untagged
  m_Icon: {fileID: 0}
  m_NavMeshLayer: 0
  m_StaticEditorFlags: 0
  m_IsActive: 1
--- !u!4 &4260894636851244
Transform:
  m_ObjectHideFlags: 0
  m_CorrespondingSourceObject: {fileID: 0}
  m_PrefabInstance: {fileID: 0}
  m_PrefabAsset: {fileID: 0}
  m_GameObject: {fileID: 1982278331065760}
  m_LocalRotation: {x: 0.27944717, y: 0.661791, z: 0.04594177, w: 0.6941407}
  m_LocalPosition: {x: 0.011431575, y: 0.0700233, z: -0.24521911}
  m_LocalScale: {x: 1.0000002, y: 0.9999983, z: 0.99999994}
  m_Children:
  - {fileID: 4439020284559860}
  m_Father: {fileID: 4014458085930926}
  m_RootOrder: 0
  m_LocalEulerAnglesHint: {x: 0, y: 0, z: 0}
