%YAML 1.1
%TAG !u! tag:unity3d.com,2011:
--- !u!1 &1003031114760210
GameObject:
  m_ObjectHideFlags: 0
  m_CorrespondingSourceObject: {fileID: 0}
  m_PrefabInstance: {fileID: 0}
  m_PrefabAsset: {fileID: 0}
  serializedVersion: 6
  m_Component:
  - component: {fileID: 4117697126305782}
  m_Layer: 0
  m_Name: Base HumanRDigit33
  m_TagString: Untagged
  m_Icon: {fileID: 0}
  m_NavMeshLayer: 0
  m_StaticEditorFlags: 0
  m_IsActive: 1
--- !u!4 &4117697126305782
Transform:
  m_ObjectHideFlags: 0
  m_CorrespondingSourceObject: {fileID: 0}
  m_PrefabInstance: {fileID: 0}
  m_PrefabAsset: {fileID: 0}
  m_GameObject: {fileID: 1003031114760210}
  m_LocalRotation: {x: 0.0000000945836, y: -0.0000003567823, z: 0.21701889, w: 0.97616744}
  m_LocalPosition: {x: -0.053035095, y: -0.0000000018626451, z: -0.0000000037252903}
  m_LocalScale: {x: 0.9999948, y: 1.0000151, z: 0.9999931}
  m_Children: []
  m_Father: {fileID: 4727177722872022}
  m_RootOrder: 0
  m_LocalEulerAnglesHint: {x: 0, y: 0, z: 0}
--- !u!1 &1073337425333756
GameObject:
  m_ObjectHideFlags: 0
  m_CorrespondingSourceObject: {fileID: 0}
  m_PrefabInstance: {fileID: 0}
  m_PrefabAsset: {fileID: 0}
  serializedVersion: 6
  m_Component:
  - component: {fileID: 4168837563318088}
  m_Layer: 0
  m_Name: Base HumanRPalm
  m_TagString: Untagged
  m_Icon: {fileID: 0}
  m_NavMeshLayer: 0
  m_StaticEditorFlags: 0
  m_IsActive: 1
--- !u!4 &4168837563318088
Transform:
  m_ObjectHideFlags: 0
  m_CorrespondingSourceObject: {fileID: 0}
  m_PrefabInstance: {fileID: 0}
  m_PrefabAsset: {fileID: 0}
  m_GameObject: {fileID: 1073337425333756}
  m_LocalRotation: {x: 0.38542554, y: -0.06671778, z: -0.4182118, w: 0.8198139}
  m_LocalPosition: {x: -0.26467752, y: 0, z: -0.0000000027939677}
  m_LocalScale: {x: 1.0000011, y: 1.0000086, z: 0.9999938}
  m_Children:
  - {fileID: 4846643827392298}
  - {fileID: 4724460561656264}
  - {fileID: 4957216405800542}
  - {fileID: 4519474761320678}
  m_Father: {fileID: 4183963885357220}
  m_RootOrder: 0
  m_LocalEulerAnglesHint: {x: 0, y: 0, z: 0}
--- !u!1 &1074363527179328
GameObject:
  m_ObjectHideFlags: 0
  m_CorrespondingSourceObject: {fileID: 0}
  m_PrefabInstance: {fileID: 0}
  m_PrefabAsset: {fileID: 0}
  serializedVersion: 6
  m_Component:
  - component: {fileID: 4724460561656264}
  m_Layer: 0
  m_Name: Base HumanRDigit21
  m_TagString: Untagged
  m_Icon: {fileID: 0}
  m_NavMeshLayer: 0
  m_StaticEditorFlags: 0
  m_IsActive: 1
--- !u!4 &4724460561656264
Transform:
  m_ObjectHideFlags: 0
  m_CorrespondingSourceObject: {fileID: 0}
  m_PrefabInstance: {fileID: 0}
  m_PrefabAsset: {fileID: 0}
  m_GameObject: {fileID: 1074363527179328}
  m_LocalRotation: {x: -0.10023913, y: -0.045802772, z: 0.05179784, w: 0.99255794}
  m_LocalPosition: {x: -0.13642979, y: 0.0025023296, z: -0.04616019}
  m_LocalScale: {x: 0.9999998, y: 1.0000107, z: 0.99999255}
  m_Children:
  - {fileID: 4741211595188518}
  m_Father: {fileID: 4168837563318088}
  m_RootOrder: 1
  m_LocalEulerAnglesHint: {x: 0, y: 0, z: 0}
--- !u!1 &1100641771477046
GameObject:
  m_ObjectHideFlags: 0
  m_CorrespondingSourceObject: {fileID: 0}
  m_PrefabInstance: {fileID: 0}
  m_PrefabAsset: {fileID: 0}
  serializedVersion: 6
  m_Component:
  - component: {fileID: 4727177722872022}
  m_Layer: 0
  m_Name: Base HumanRDigit32
  m_TagString: Untagged
  m_Icon: {fileID: 0}
  m_NavMeshLayer: 0
  m_StaticEditorFlags: 0
  m_IsActive: 1
--- !u!4 &4727177722872022
Transform:
  m_ObjectHideFlags: 0
  m_CorrespondingSourceObject: {fileID: 0}
  m_PrefabInstance: {fileID: 0}
  m_PrefabAsset: {fileID: 0}
  m_GameObject: {fileID: 1100641771477046}
  m_LocalRotation: {x: -0.00000020246146, y: -0.0000007042498, z: 0.051434383, w: 0.9986764}
  m_LocalPosition: {x: -0.06429131, y: -0.00000012107193, z: 0}
  m_LocalScale: {x: 0.99999976, y: 1.0000104, z: 0.9999931}
  m_Children:
  - {fileID: 4117697126305782}
  m_Father: {fileID: 4957216405800542}
  m_RootOrder: 0
  m_LocalEulerAnglesHint: {x: 0, y: 0, z: 0}
--- !u!1 &1230940391406694
GameObject:
  m_ObjectHideFlags: 0
  m_CorrespondingSourceObject: {fileID: 0}
  m_PrefabInstance: {fileID: 0}
  m_PrefabAsset: {fileID: 0}
  serializedVersion: 6
  m_Component:
  - component: {fileID: 4835923942709590}
  m_Layer: 0
  m_Name: Base HumanRDigit12
  m_TagString: Untagged
  m_Icon: {fileID: 0}
  m_NavMeshLayer: 0
  m_StaticEditorFlags: 0
  m_IsActive: 1
--- !u!4 &4835923942709590
Transform:
  m_ObjectHideFlags: 0
  m_CorrespondingSourceObject: {fileID: 0}
  m_PrefabInstance: {fileID: 0}
  m_PrefabAsset: {fileID: 0}
  m_GameObject: {fileID: 1230940391406694}
  m_LocalRotation: {x: -0.000009154388, y: 0.08850574, z: 0.00009814422, w: 0.9960757}
  m_LocalPosition: {x: -0.08665922, y: 9.313226e-10, z: 0.000000055879354}
  m_LocalScale: {x: 0.9999997, y: 0.9999931, z: 1.0000101}
  m_Children:
  - {fileID: 4506413442171880}
  m_Father: {fileID: 4846643827392298}
  m_RootOrder: 0
  m_LocalEulerAnglesHint: {x: 0, y: 0, z: 0}
--- !u!1 &1248052751441758
GameObject:
  m_ObjectHideFlags: 0
  m_CorrespondingSourceObject: {fileID: 0}
  m_PrefabInstance: {fileID: 0}
  m_PrefabAsset: {fileID: 0}
  serializedVersion: 6
  m_Component:
  - component: {fileID: 4846643827392298}
  m_Layer: 0
  m_Name: Base HumanRDigit11
  m_TagString: Untagged
  m_Icon: {fileID: 0}
  m_NavMeshLayer: 0
  m_StaticEditorFlags: 0
  m_IsActive: 1
--- !u!4 &4846643827392298
Transform:
  m_ObjectHideFlags: 0
  m_CorrespondingSourceObject: {fileID: 0}
  m_PrefabInstance: {fileID: 0}
  m_PrefabAsset: {fileID: 0}
  m_GameObject: {fileID: 1248052751441758}
  m_LocalRotation: {x: -0.38197342, y: -0.29908136, z: 0.22467439, w: 0.8450847}
  m_LocalPosition: {x: -0.01892024, y: -0.003977893, z: -0.04992887}
  m_LocalScale: {x: 0.99999756, y: 1.0000026, z: 1.000003}
  m_Children:
  - {fileID: 4835923942709590}
  m_Father: {fileID: 4168837563318088}
  m_RootOrder: 0
  m_LocalEulerAnglesHint: {x: 0, y: 0, z: 0}
--- !u!1 &1284912318425490
GameObject:
  m_ObjectHideFlags: 0
  m_CorrespondingSourceObject: {fileID: 0}
  m_PrefabInstance: {fileID: 0}
  m_PrefabAsset: {fileID: 0}
  serializedVersion: 6
  m_Component:
  - component: {fileID: 4506413442171880}
  m_Layer: 0
  m_Name: Base HumanRDigit13
  m_TagString: Untagged
  m_Icon: {fileID: 0}
  m_NavMeshLayer: 0
  m_StaticEditorFlags: 0
  m_IsActive: 1
--- !u!4 &4506413442171880
Transform:
  m_ObjectHideFlags: 0
  m_CorrespondingSourceObject: {fileID: 0}
  m_PrefabInstance: {fileID: 0}
  m_PrefabAsset: {fileID: 0}
  m_GameObject: {fileID: 1284912318425490}
  m_LocalRotation: {x: 0.00000004778686, y: 0.19693002, z: -0.00000031357504, w: 0.98041755}
  m_LocalPosition: {x: -0.05227588, y: -0.000000055879354, z: 0}
  m_LocalScale: {x: 0.99999803, y: 0.999993, z: 1.0000122}
  m_Children: []
  m_Father: {fileID: 4835923942709590}
  m_RootOrder: 0
  m_LocalEulerAnglesHint: {x: 0, y: 0, z: 0}
--- !u!1 &1360558210659958
GameObject:
  m_ObjectHideFlags: 0
  m_CorrespondingSourceObject: {fileID: 0}
  m_PrefabInstance: {fileID: 0}
  m_PrefabAsset: {fileID: 0}
  serializedVersion: 6
  m_Component:
  - component: {fileID: 4315848271537990}
  - component: {fileID: 137472351287168366}
  m_Layer: 0
  m_Name: monsterhand
  m_TagString: Untagged
  m_Icon: {fileID: 0}
  m_NavMeshLayer: 0
  m_StaticEditorFlags: 0
  m_IsActive: 1
--- !u!4 &4315848271537990
Transform:
  m_ObjectHideFlags: 0
  m_CorrespondingSourceObject: {fileID: 0}
  m_PrefabInstance: {fileID: 0}
  m_PrefabAsset: {fileID: 0}
  m_GameObject: {fileID: 1360558210659958}
  m_LocalRotation: {x: -0.7071068, y: 0, z: -0, w: 0.7071068}
  m_LocalPosition: {x: -0, y: 0, z: 0}
  m_LocalScale: {x: 1, y: 1, z: 1}
  m_Children: []
  m_Father: {fileID: 4833779611669456}
  m_RootOrder: 1
  m_LocalEulerAnglesHint: {x: 0, y: 0, z: 0}
--- !u!137 &137472351287168366
SkinnedMeshRenderer:
  m_ObjectHideFlags: 0
  m_CorrespondingSourceObject: {fileID: 0}
  m_PrefabInstance: {fileID: 0}
  m_PrefabAsset: {fileID: 0}
  m_GameObject: {fileID: 1360558210659958}
  m_Enabled: 1
  m_CastShadows: 1
  m_ReceiveShadows: 1
  m_DynamicOccludee: 1
  m_MotionVectors: 1
  m_LightProbeUsage: 1
  m_ReflectionProbeUsage: 1
  m_RenderingLayerMask: 1
  m_RendererPriority: 0
  m_Materials:
  - {fileID: 2100000, guid: 110829a9cfbe58a4c902903465b44cdc, type: 2}
  m_StaticBatchInfo:
    firstSubMesh: 0
    subMeshCount: 0
  m_StaticBatchRoot: {fileID: 0}
  m_ProbeAnchor: {fileID: 0}
  m_LightProbeVolumeOverride: {fileID: 0}
  m_ScaleInLightmap: 1
  m_PreserveUVs: 0
  m_IgnoreNormalsForChartDetection: 0
  m_ImportantGI: 0
  m_StitchLightmapSeams: 0
  m_SelectedEditorRenderState: 3
  m_MinimumChartSize: 4
  m_AutoUVMaxDistance: 0.5
  m_AutoUVMaxAngle: 89
  m_LightmapParameters: {fileID: 0}
  m_SortingLayerID: 0
  m_SortingLayer: 0
  m_SortingOrder: 0
  serializedVersion: 2
  m_Quality: 0
  m_UpdateWhenOffscreen: 0
  m_SkinnedMotionVectors: 1
  m_Mesh: {fileID: 4300000, guid: 2bf52688fb55ab54f8611be49f245d5c, type: 3}
  m_Bones:
  - {fileID: 4846643827392298}
  - {fileID: 4835923942709590}
  - {fileID: 4506413442171880}
  - {fileID: 4168837563318088}
  - {fileID: 4519474761320678}
  - {fileID: 4957216405800542}
  - {fileID: 4724460561656264}
  - {fileID: 4727177722872022}
  - {fileID: 4117697126305782}
  - {fileID: 4817662511133936}
  - {fileID: 4741211595188518}
  - {fileID: 4510355042059986}
  - {fileID: 4924224564415588}
  m_BlendShapeWeights: []
  m_RootBone: {fileID: 4168837563318088}
  m_AABB:
    m_Center: {x: -0.1608304, y: -0.026462764, z: -0.0064686947}
    m_Extent: {x: 0.18804963, y: 0.106629804, z: 0.12187387}
  m_DirtyAABB: 0
--- !u!1 &1380813060954070
GameObject:
  m_ObjectHideFlags: 0
  m_CorrespondingSourceObject: {fileID: 0}
  m_PrefabInstance: {fileID: 0}
  m_PrefabAsset: {fileID: 0}
  serializedVersion: 6
  m_Component:
  - component: {fileID: 4833779611669456}
  - component: {fileID: 95720087555557648}
  m_Layer: 0
  m_Name: Right Hand Blue
  m_TagString: Untagged
  m_Icon: {fileID: 0}
  m_NavMeshLayer: 0
  m_StaticEditorFlags: 0
  m_IsActive: 1
--- !u!4 &4833779611669456
Transform:
  m_ObjectHideFlags: 0
  m_CorrespondingSourceObject: {fileID: 0}
  m_PrefabInstance: {fileID: 0}
  m_PrefabAsset: {fileID: 0}
  m_GameObject: {fileID: 1380813060954070}
  m_LocalRotation: {x: 0, y: 0, z: 0, w: 1}
  m_LocalPosition: {x: 0, y: 0, z: 0}
  m_LocalScale: {x: 1, y: 1, z: 1}
  m_Children:
  - {fileID: 4183963885357220}
  - {fileID: 4315848271537990}
  m_Father: {fileID: 0}
  m_RootOrder: 0
  m_LocalEulerAnglesHint: {x: 0, y: 0, z: 0}
--- !u!95 &95720087555557648
Animator:
  serializedVersion: 3
  m_ObjectHideFlags: 0
  m_CorrespondingSourceObject: {fileID: 0}
  m_PrefabInstance: {fileID: 0}
  m_PrefabAsset: {fileID: 0}
  m_GameObject: {fileID: 1380813060954070}
  m_Enabled: 1
  m_Avatar: {fileID: 9000000, guid: 2bf52688fb55ab54f8611be49f245d5c, type: 3}
  m_Controller: {fileID: 0}
  m_CullingMode: 1
  m_UpdateMode: 0
  m_ApplyRootMotion: 0
  m_LinearVelocityBlending: 0
  m_WarningMessage: 
  m_HasTransformHierarchy: 1
  m_AllowConstantClipSamplingOptimization: 1
  m_KeepAnimatorControllerStateOnDisable: 0
--- !u!1 &1494098216363324
GameObject:
  m_ObjectHideFlags: 0
  m_CorrespondingSourceObject: {fileID: 0}
  m_PrefabInstance: {fileID: 0}
  m_PrefabAsset: {fileID: 0}
  serializedVersion: 6
  m_Component:
  - component: {fileID: 4510355042059986}
  m_Layer: 0
  m_Name: Base HumanRDigit23
  m_TagString: Untagged
  m_Icon: {fileID: 0}
  m_NavMeshLayer: 0
  m_StaticEditorFlags: 0
  m_IsActive: 1
--- !u!4 &4510355042059986
Transform:
  m_ObjectHideFlags: 0
  m_CorrespondingSourceObject: {fileID: 0}
  m_PrefabInstance: {fileID: 0}
  m_PrefabAsset: {fileID: 0}
  m_GameObject: {fileID: 1494098216363324}
  m_LocalRotation: {x: -0.00000021141494, y: -0.0000004169695, z: 0.24043952, w: 0.97066414}
  m_LocalPosition: {x: -0.04691644, y: -0.0000000037252903, z: -0.000000029802322}
  m_LocalScale: {x: 0.99999374, y: 1.0000162, z: 0.9999931}
  m_Children: []
  m_Father: {fileID: 4741211595188518}
  m_RootOrder: 0
  m_LocalEulerAnglesHint: {x: 0, y: 0, z: 0}
--- !u!1 &1519744679176864
GameObject:
  m_ObjectHideFlags: 0
  m_CorrespondingSourceObject: {fileID: 0}
  m_PrefabInstance: {fileID: 0}
  m_PrefabAsset: {fileID: 0}
  serializedVersion: 6
  m_Component:
  - component: {fileID: 4519474761320678}
  m_Layer: 0
  m_Name: Base HumanRDigit41
  m_TagString: Untagged
  m_Icon: {fileID: 0}
  m_NavMeshLayer: 0
  m_StaticEditorFlags: 0
  m_IsActive: 1
--- !u!4 &4519474761320678
Transform:
  m_ObjectHideFlags: 0
  m_CorrespondingSourceObject: {fileID: 0}
  m_PrefabInstance: {fileID: 0}
  m_PrefabAsset: {fileID: 0}
  m_GameObject: {fileID: 1519744679176864}
  m_LocalRotation: {x: -0.001199836, y: 0.14836682, z: -0.008004196, w: 0.9888993}
  m_LocalPosition: {x: -0.14433932, y: 0.010714237, z: 0.052259386}
  m_LocalScale: {x: 1.0000006, y: 1.00001, z: 0.99999255}
  m_Children:
  - {fileID: 4817662511133936}
  m_Father: {fileID: 4168837563318088}
  m_RootOrder: 3
  m_LocalEulerAnglesHint: {x: 0, y: 0, z: 0}
--- !u!1 &1682597128872538
GameObject:
  m_ObjectHideFlags: 0
  m_CorrespondingSourceObject: {fileID: 0}
  m_PrefabInstance: {fileID: 0}
  m_PrefabAsset: {fileID: 0}
  serializedVersion: 6
  m_Component:
  - component: {fileID: 4817662511133936}
  m_Layer: 0
  m_Name: Base HumanRDigit42
  m_TagString: Untagged
  m_Icon: {fileID: 0}
  m_NavMeshLayer: 0
  m_StaticEditorFlags: 0
  m_IsActive: 1
--- !u!4 &4817662511133936
Transform:
  m_ObjectHideFlags: 0
  m_CorrespondingSourceObject: {fileID: 0}
  m_PrefabInstance: {fileID: 0}
  m_PrefabAsset: {fileID: 0}
  m_GameObject: {fileID: 1682597128872538}
  m_LocalRotation: {x: 0.0000056721738, y: -0.0000875636, z: 0.1322779, w: 0.9912127}
  m_LocalPosition: {x: -0.045699418, y: -0.0000000027939677, z: 0}
  m_LocalScale: {x: 0.9999987, y: 1.0000113, z: 0.999993}
  m_Children:
  - {fileID: 4924224564415588}
  m_Father: {fileID: 4519474761320678}
  m_RootOrder: 0
  m_LocalEulerAnglesHint: {x: 0, y: 0, z: 0}
--- !u!1 &1765885456338982
GameObject:
  m_ObjectHideFlags: 0
  m_CorrespondingSourceObject: {fileID: 0}
  m_PrefabInstance: {fileID: 0}
  m_PrefabAsset: {fileID: 0}
  serializedVersion: 6
  m_Component:
  - component: {fileID: 4924224564415588}
  m_Layer: 0
  m_Name: Base HumanRDigit43
  m_TagString: Untagged
  m_Icon: {fileID: 0}
  m_NavMeshLayer: 0
  m_StaticEditorFlags: 0
  m_IsActive: 1
--- !u!4 &4924224564415588
Transform:
  m_ObjectHideFlags: 0
  m_CorrespondingSourceObject: {fileID: 0}
  m_PrefabInstance: {fileID: 0}
  m_PrefabAsset: {fileID: 0}
  m_GameObject: {fileID: 1765885456338982}
  m_LocalRotation: {x: -0.0000024881256, y: 0.000058285696, z: 0.21046355, w: 0.9776017}
  m_LocalPosition: {x: -0.04201752, y: -0.00000011920929, z: 0}
  m_LocalScale: {x: 0.9999953, y: 1.0000151, z: 0.9999932}
  m_Children: []
  m_Father: {fileID: 4817662511133936}
  m_RootOrder: 0
  m_LocalEulerAnglesHint: {x: 0, y: 0, z: 0}
--- !u!1 &1799418899892146
GameObject:
  m_ObjectHideFlags: 0
  m_CorrespondingSourceObject: {fileID: 0}
  m_PrefabInstance: {fileID: 0}
  m_PrefabAsset: {fileID: 0}
  serializedVersion: 6
  m_Component:
  - component: {fileID: 4183963885357220}
  m_Layer: 0
  m_Name: Base HumanRForearm
  m_TagString: Untagged
  m_Icon: {fileID: 0}
  m_NavMeshLayer: 0
  m_StaticEditorFlags: 0
  m_IsActive: 1
--- !u!4 &4183963885357220
Transform:
  m_ObjectHideFlags: 0
  m_CorrespondingSourceObject: {fileID: 0}
  m_PrefabInstance: {fileID: 0}
  m_PrefabAsset: {fileID: 0}
  m_GameObject: {fileID: 1799418899892146}
  m_LocalRotation: {x: 0.045937583, y: 0.69412756, z: 0.279449, w: 0.6618043}
  m_LocalPosition: {x: -0.010642469, y: 0.07002306, z: -0.24521974}
  m_LocalScale: {x: 1.0000002, y: 0.9999982, z: 0.9999998}
  m_Children:
  - {fileID: 4168837563318088}
  m_Father: {fileID: 4833779611669456}
  m_RootOrder: 0
  m_LocalEulerAnglesHint: {x: 0, y: 0, z: 0}
--- !u!1 &1820913052692932
GameObject:
  m_ObjectHideFlags: 0
  m_CorrespondingSourceObject: {fileID: 0}
  m_PrefabInstance: {fileID: 0}
  m_PrefabAsset: {fileID: 0}
  serializedVersion: 6
  m_Component:
  - component: {fileID: 4741211595188518}
  m_Layer: 0
  m_Name: Base HumanRDigit22
  m_TagString: Untagged
  m_Icon: {fileID: 0}
  m_NavMeshLayer: 0
  m_StaticEditorFlags: 0
  m_IsActive: 1
--- !u!4 &4741211595188518
Transform:
  m_ObjectHideFlags: 0
  m_CorrespondingSourceObject: {fileID: 0}
  m_PrefabInstance: {fileID: 0}
  m_PrefabAsset: {fileID: 0}
  m_GameObject: {fileID: 1820913052692932}
  m_LocalRotation: {x: -0.00000019179747, y: -0.00000027556484, z: 0.1201414, w: 0.9927568}
  m_LocalPosition: {x: -0.055737488, y: 0.0000000037252903, z: -0.0000000027939677}
  m_LocalScale: {x: 0.9999989, y: 1.000011, z: 0.999993}
  m_Children:
  - {fileID: 4510355042059986}
  m_Father: {fileID: 4724460561656264}
  m_RootOrder: 0
  m_LocalEulerAnglesHint: {x: 0, y: 0, z: 0}
--- !u!1 &1893925871985492
GameObject:
  m_ObjectHideFlags: 0
  m_CorrespondingSourceObject: {fileID: 0}
  m_PrefabInstance: {fileID: 0}
  m_PrefabAsset: {fileID: 0}
  serializedVersion: 6
  m_Component:
  - component: {fileID: 4957216405800542}
  m_Layer: 0
  m_Name: Base HumanRDigit31
  m_TagString: Untagged
  m_Icon: {fileID: 0}
  m_NavMeshLayer: 0
  m_StaticEditorFlags: 0
  m_IsActive: 1
--- !u!4 &4957216405800542
Transform:
  m_ObjectHideFlags: 0
  m_CorrespondingSourceObject: {fileID: 0}
  m_PrefabInstance: {fileID: 0}
  m_PrefabAsset: {fileID: 0}
  m_GameObject: {fileID: 1893925871985492}
  m_LocalRotation: {x: -0.04653741, y: 0.05280427, z: 0.05262585, w: 0.99613076}
  m_LocalPosition: {x: -0.14844382, y: 0.011549292, z: 0.004599631}
  m_LocalScale: {x: 0.9999999, y: 1.0000103, z: 0.99999285}
  m_Children:
  - {fileID: 4727177722872022}
  m_Father: {fileID: 4168837563318088}
  m_RootOrder: 2
  m_LocalEulerAnglesHint: {x: 0, y: 0, z: 0}
