%YAML 1.1
%TAG !u! tag:unity3d.com,2011:
--- !u!1 &1009466425412168
GameObject:
  m_ObjectHideFlags: 0
  m_CorrespondingSourceObject: {fileID: 0}
  m_PrefabInstance: {fileID: 0}
  m_PrefabAsset: {fileID: 0}
  serializedVersion: 6
  m_Component:
  - component: {fileID: 4460074886633704}
  - component: {fileID: 137836804857333608}
  m_Layer: 0
  m_Name: monsterhand
  m_TagString: Untagged
  m_Icon: {fileID: 0}
  m_NavMeshLayer: 0
  m_StaticEditorFlags: 0
  m_IsActive: 1
--- !u!4 &4460074886633704
Transform:
  m_ObjectHideFlags: 0
  m_CorrespondingSourceObject: {fileID: 0}
  m_PrefabInstance: {fileID: 0}
  m_PrefabAsset: {fileID: 0}
  m_GameObject: {fileID: 1009466425412168}
  m_LocalRotation: {x: -0.7071068, y: 0, z: -0, w: 0.7071068}
  m_LocalPosition: {x: -0, y: 0, z: 0}
  m_LocalScale: {x: 1, y: 1, z: 1}
  m_Children: []
  m_Father: {fileID: 4558805167948930}
  m_RootOrder: 1
  m_LocalEulerAnglesHint: {x: 0, y: 0, z: 0}
--- !u!137 &137836804857333608
SkinnedMeshRenderer:
  m_ObjectHideFlags: 0
  m_CorrespondingSourceObject: {fileID: 0}
  m_PrefabInstance: {fileID: 0}
  m_PrefabAsset: {fileID: 0}
  m_GameObject: {fileID: 1009466425412168}
  m_Enabled: 1
  m_CastShadows: 1
  m_ReceiveShadows: 1
  m_DynamicOccludee: 1
  m_MotionVectors: 1
  m_LightProbeUsage: 1
  m_ReflectionProbeUsage: 1
  m_RenderingLayerMask: 1
  m_RendererPriority: 0
  m_Materials:
  - {fileID: 2100000, guid: 7bde35067a2f5c6499f74a00e7f7c4e0, type: 2}
  m_StaticBatchInfo:
    firstSubMesh: 0
    subMeshCount: 0
  m_StaticBatchRoot: {fileID: 0}
  m_ProbeAnchor: {fileID: 0}
  m_LightProbeVolumeOverride: {fileID: 0}
  m_ScaleInLightmap: 1
  m_PreserveUVs: 0
  m_IgnoreNormalsForChartDetection: 0
  m_ImportantGI: 0
  m_StitchLightmapSeams: 0
  m_SelectedEditorRenderState: 3
  m_MinimumChartSize: 4
  m_AutoUVMaxDistance: 0.5
  m_AutoUVMaxAngle: 89
  m_LightmapParameters: {fileID: 0}
  m_SortingLayerID: 0
  m_SortingLayer: 0
  m_SortingOrder: 0
  serializedVersion: 2
  m_Quality: 0
  m_UpdateWhenOffscreen: 0
  m_SkinnedMotionVectors: 1
  m_Mesh: {fileID: 4300000, guid: 2bf52688fb55ab54f8611be49f245d5c, type: 3}
  m_Bones:
  - {fileID: 4598995824555142}
  - {fileID: 4814055287564768}
  - {fileID: 4529388681392138}
  - {fileID: 4378193303973300}
  - {fileID: 4680473183986682}
  - {fileID: 4591239115582972}
  - {fileID: 4719797559633310}
  - {fileID: 4332414114079536}
  - {fileID: 4945543035620170}
  - {fileID: 4661954778215684}
  - {fileID: 4151383865423600}
  - {fileID: 4150756404027930}
  - {fileID: 4079689219381396}
  m_BlendShapeWeights: []
  m_RootBone: {fileID: 4378193303973300}
  m_AABB:
    m_Center: {x: -0.1608304, y: -0.026462764, z: -0.0064686947}
    m_Extent: {x: 0.18804963, y: 0.106629804, z: 0.12187387}
  m_DirtyAABB: 0
--- !u!1 &1052308408018664
GameObject:
  m_ObjectHideFlags: 0
  m_CorrespondingSourceObject: {fileID: 0}
  m_PrefabInstance: {fileID: 0}
  m_PrefabAsset: {fileID: 0}
  serializedVersion: 6
  m_Component:
  - component: {fileID: 4558805167948930}
  - component: {fileID: 95649126678145328}
  m_Layer: 0
  m_Name: Right Hand Yellow
  m_TagString: Untagged
  m_Icon: {fileID: 0}
  m_NavMeshLayer: 0
  m_StaticEditorFlags: 0
  m_IsActive: 1
--- !u!4 &4558805167948930
Transform:
  m_ObjectHideFlags: 0
  m_CorrespondingSourceObject: {fileID: 0}
  m_PrefabInstance: {fileID: 0}
  m_PrefabAsset: {fileID: 0}
  m_GameObject: {fileID: 1052308408018664}
  m_LocalRotation: {x: 0, y: 0, z: 0, w: 1}
  m_LocalPosition: {x: 0, y: 0, z: 0}
  m_LocalScale: {x: 1, y: 1, z: 1}
  m_Children:
  - {fileID: 4505068078721916}
  - {fileID: 4460074886633704}
  m_Father: {fileID: 0}
  m_RootOrder: 0
  m_LocalEulerAnglesHint: {x: 0, y: 0, z: 0}
--- !u!95 &95649126678145328
Animator:
  serializedVersion: 3
  m_ObjectHideFlags: 0
  m_CorrespondingSourceObject: {fileID: 0}
  m_PrefabInstance: {fileID: 0}
  m_PrefabAsset: {fileID: 0}
  m_GameObject: {fileID: 1052308408018664}
  m_Enabled: 1
  m_Avatar: {fileID: 9000000, guid: 2bf52688fb55ab54f8611be49f245d5c, type: 3}
  m_Controller: {fileID: 0}
  m_CullingMode: 1
  m_UpdateMode: 0
  m_ApplyRootMotion: 0
  m_LinearVelocityBlending: 0
  m_WarningMessage: 
  m_HasTransformHierarchy: 1
  m_AllowConstantClipSamplingOptimization: 1
  m_KeepAnimatorControllerStateOnDisable: 0
--- !u!1 &1092948121711636
GameObject:
  m_ObjectHideFlags: 0
  m_CorrespondingSourceObject: {fileID: 0}
  m_PrefabInstance: {fileID: 0}
  m_PrefabAsset: {fileID: 0}
  serializedVersion: 6
  m_Component:
  - component: {fileID: 4945543035620170}
  m_Layer: 0
  m_Name: Base HumanRDigit33
  m_TagString: Untagged
  m_Icon: {fileID: 0}
  m_NavMeshLayer: 0
  m_StaticEditorFlags: 0
  m_IsActive: 1
--- !u!4 &4945543035620170
Transform:
  m_ObjectHideFlags: 0
  m_CorrespondingSourceObject: {fileID: 0}
  m_PrefabInstance: {fileID: 0}
  m_PrefabAsset: {fileID: 0}
  m_GameObject: {fileID: 1092948121711636}
  m_LocalRotation: {x: 0.0000000945836, y: -0.0000003567823, z: 0.21701889, w: 0.97616744}
  m_LocalPosition: {x: -0.053035095, y: -0.0000000018626451, z: -0.0000000037252903}
  m_LocalScale: {x: 0.9999948, y: 1.0000151, z: 0.9999931}
  m_Children: []
  m_Father: {fileID: 4332414114079536}
  m_RootOrder: 0
  m_LocalEulerAnglesHint: {x: 0, y: 0, z: 0}
--- !u!1 &1216130688512734
GameObject:
  m_ObjectHideFlags: 0
  m_CorrespondingSourceObject: {fileID: 0}
  m_PrefabInstance: {fileID: 0}
  m_PrefabAsset: {fileID: 0}
  serializedVersion: 6
  m_Component:
  - component: {fileID: 4079689219381396}
  m_Layer: 0
  m_Name: Base HumanRDigit43
  m_TagString: Untagged
  m_Icon: {fileID: 0}
  m_NavMeshLayer: 0
  m_StaticEditorFlags: 0
  m_IsActive: 1
--- !u!4 &4079689219381396
Transform:
  m_ObjectHideFlags: 0
  m_CorrespondingSourceObject: {fileID: 0}
  m_PrefabInstance: {fileID: 0}
  m_PrefabAsset: {fileID: 0}
  m_GameObject: {fileID: 1216130688512734}
  m_LocalRotation: {x: -0.0000024881256, y: 0.000058285696, z: 0.21046355, w: 0.9776017}
  m_LocalPosition: {x: -0.04201752, y: -0.00000011920929, z: 0}
  m_LocalScale: {x: 0.9999953, y: 1.0000151, z: 0.9999932}
  m_Children: []
  m_Father: {fileID: 4661954778215684}
  m_RootOrder: 0
  m_LocalEulerAnglesHint: {x: 0, y: 0, z: 0}
--- !u!1 &1231394000136854
GameObject:
  m_ObjectHideFlags: 0
  m_CorrespondingSourceObject: {fileID: 0}
  m_PrefabInstance: {fileID: 0}
  m_PrefabAsset: {fileID: 0}
  serializedVersion: 6
  m_Component:
  - component: {fileID: 4814055287564768}
  m_Layer: 0
  m_Name: Base HumanRDigit12
  m_TagString: Untagged
  m_Icon: {fileID: 0}
  m_NavMeshLayer: 0
  m_StaticEditorFlags: 0
  m_IsActive: 1
--- !u!4 &4814055287564768
Transform:
  m_ObjectHideFlags: 0
  m_CorrespondingSourceObject: {fileID: 0}
  m_PrefabInstance: {fileID: 0}
  m_PrefabAsset: {fileID: 0}
  m_GameObject: {fileID: 1231394000136854}
  m_LocalRotation: {x: -0.000009154388, y: 0.08850574, z: 0.00009814422, w: 0.9960757}
  m_LocalPosition: {x: -0.08665922, y: 9.313226e-10, z: 0.000000055879354}
  m_LocalScale: {x: 0.9999997, y: 0.9999931, z: 1.0000101}
  m_Children:
  - {fileID: 4529388681392138}
  m_Father: {fileID: 4598995824555142}
  m_RootOrder: 0
  m_LocalEulerAnglesHint: {x: 0, y: 0, z: 0}
--- !u!1 &1258471100001536
GameObject:
  m_ObjectHideFlags: 0
  m_CorrespondingSourceObject: {fileID: 0}
  m_PrefabInstance: {fileID: 0}
  m_PrefabAsset: {fileID: 0}
  serializedVersion: 6
  m_Component:
  - component: {fileID: 4151383865423600}
  m_Layer: 0
  m_Name: Base HumanRDigit22
  m_TagString: Untagged
  m_Icon: {fileID: 0}
  m_NavMeshLayer: 0
  m_StaticEditorFlags: 0
  m_IsActive: 1
--- !u!4 &4151383865423600
Transform:
  m_ObjectHideFlags: 0
  m_CorrespondingSourceObject: {fileID: 0}
  m_PrefabInstance: {fileID: 0}
  m_PrefabAsset: {fileID: 0}
  m_GameObject: {fileID: 1258471100001536}
  m_LocalRotation: {x: -0.00000019179747, y: -0.00000027556484, z: 0.1201414, w: 0.9927568}
  m_LocalPosition: {x: -0.055737488, y: 0.0000000037252903, z: -0.0000000027939677}
  m_LocalScale: {x: 0.9999989, y: 1.000011, z: 0.999993}
  m_Children:
  - {fileID: 4150756404027930}
  m_Father: {fileID: 4719797559633310}
  m_RootOrder: 0
  m_LocalEulerAnglesHint: {x: 0, y: 0, z: 0}
--- !u!1 &1271206871496698
GameObject:
  m_ObjectHideFlags: 0
  m_CorrespondingSourceObject: {fileID: 0}
  m_PrefabInstance: {fileID: 0}
  m_PrefabAsset: {fileID: 0}
  serializedVersion: 6
  m_Component:
  - component: {fileID: 4505068078721916}
  m_Layer: 0
  m_Name: Base HumanRForearm
  m_TagString: Untagged
  m_Icon: {fileID: 0}
  m_NavMeshLayer: 0
  m_StaticEditorFlags: 0
  m_IsActive: 1
--- !u!4 &4505068078721916
Transform:
  m_ObjectHideFlags: 0
  m_CorrespondingSourceObject: {fileID: 0}
  m_PrefabInstance: {fileID: 0}
  m_PrefabAsset: {fileID: 0}
  m_GameObject: {fileID: 1271206871496698}
  m_LocalRotation: {x: 0.045937583, y: 0.69412756, z: 0.279449, w: 0.6618043}
  m_LocalPosition: {x: -0.010642469, y: 0.07002306, z: -0.24521974}
  m_LocalScale: {x: 1.0000002, y: 0.9999982, z: 0.9999998}
  m_Children:
  - {fileID: 4378193303973300}
  m_Father: {fileID: 4558805167948930}
  m_RootOrder: 0
  m_LocalEulerAnglesHint: {x: 0, y: 0, z: 0}
--- !u!1 &1332076509064158
GameObject:
  m_ObjectHideFlags: 0
  m_CorrespondingSourceObject: {fileID: 0}
  m_PrefabInstance: {fileID: 0}
  m_PrefabAsset: {fileID: 0}
  serializedVersion: 6
  m_Component:
  - component: {fileID: 4661954778215684}
  m_Layer: 0
  m_Name: Base HumanRDigit42
  m_TagString: Untagged
  m_Icon: {fileID: 0}
  m_NavMeshLayer: 0
  m_StaticEditorFlags: 0
  m_IsActive: 1
--- !u!4 &4661954778215684
Transform:
  m_ObjectHideFlags: 0
  m_CorrespondingSourceObject: {fileID: 0}
  m_PrefabInstance: {fileID: 0}
  m_PrefabAsset: {fileID: 0}
  m_GameObject: {fileID: 1332076509064158}
  m_LocalRotation: {x: 0.0000056721738, y: -0.0000875636, z: 0.1322779, w: 0.9912127}
  m_LocalPosition: {x: -0.045699418, y: -0.0000000027939677, z: 0}
  m_LocalScale: {x: 0.9999987, y: 1.0000113, z: 0.999993}
  m_Children:
  - {fileID: 4079689219381396}
  m_Father: {fileID: 4680473183986682}
  m_RootOrder: 0
  m_LocalEulerAnglesHint: {x: 0, y: 0, z: 0}
--- !u!1 &1371705539620476
GameObject:
  m_ObjectHideFlags: 0
  m_CorrespondingSourceObject: {fileID: 0}
  m_PrefabInstance: {fileID: 0}
  m_PrefabAsset: {fileID: 0}
  serializedVersion: 6
  m_Component:
  - component: {fileID: 4529388681392138}
  m_Layer: 0
  m_Name: Base HumanRDigit13
  m_TagString: Untagged
  m_Icon: {fileID: 0}
  m_NavMeshLayer: 0
  m_StaticEditorFlags: 0
  m_IsActive: 1
--- !u!4 &4529388681392138
Transform:
  m_ObjectHideFlags: 0
  m_CorrespondingSourceObject: {fileID: 0}
  m_PrefabInstance: {fileID: 0}
  m_PrefabAsset: {fileID: 0}
  m_GameObject: {fileID: 1371705539620476}
  m_LocalRotation: {x: 0.00000004778686, y: 0.19693002, z: -0.00000031357504, w: 0.98041755}
  m_LocalPosition: {x: -0.05227588, y: -0.000000055879354, z: 0}
  m_LocalScale: {x: 0.99999803, y: 0.999993, z: 1.0000122}
  m_Children: []
  m_Father: {fileID: 4814055287564768}
  m_RootOrder: 0
  m_LocalEulerAnglesHint: {x: 0, y: 0, z: 0}
--- !u!1 &1444132996502342
GameObject:
  m_ObjectHideFlags: 0
  m_CorrespondingSourceObject: {fileID: 0}
  m_PrefabInstance: {fileID: 0}
  m_PrefabAsset: {fileID: 0}
  serializedVersion: 6
  m_Component:
  - component: {fileID: 4598995824555142}
  m_Layer: 0
  m_Name: Base HumanRDigit11
  m_TagString: Untagged
  m_Icon: {fileID: 0}
  m_NavMeshLayer: 0
  m_StaticEditorFlags: 0
  m_IsActive: 1
--- !u!4 &4598995824555142
Transform:
  m_ObjectHideFlags: 0
  m_CorrespondingSourceObject: {fileID: 0}
  m_PrefabInstance: {fileID: 0}
  m_PrefabAsset: {fileID: 0}
  m_GameObject: {fileID: 1444132996502342}
  m_LocalRotation: {x: -0.38197342, y: -0.29908136, z: 0.22467439, w: 0.8450847}
  m_LocalPosition: {x: -0.01892024, y: -0.003977893, z: -0.04992887}
  m_LocalScale: {x: 0.99999756, y: 1.0000026, z: 1.000003}
  m_Children:
  - {fileID: 4814055287564768}
  m_Father: {fileID: 4378193303973300}
  m_RootOrder: 0
  m_LocalEulerAnglesHint: {x: 0, y: 0, z: 0}
--- !u!1 &1562509598698928
GameObject:
  m_ObjectHideFlags: 0
  m_CorrespondingSourceObject: {fileID: 0}
  m_PrefabInstance: {fileID: 0}
  m_PrefabAsset: {fileID: 0}
  serializedVersion: 6
  m_Component:
  - component: {fileID: 4591239115582972}
  m_Layer: 0
  m_Name: Base HumanRDigit31
  m_TagString: Untagged
  m_Icon: {fileID: 0}
  m_NavMeshLayer: 0
  m_StaticEditorFlags: 0
  m_IsActive: 1
--- !u!4 &4591239115582972
Transform:
  m_ObjectHideFlags: 0
  m_CorrespondingSourceObject: {fileID: 0}
  m_PrefabInstance: {fileID: 0}
  m_PrefabAsset: {fileID: 0}
  m_GameObject: {fileID: 1562509598698928}
  m_LocalRotation: {x: -0.04653741, y: 0.05280427, z: 0.05262585, w: 0.99613076}
  m_LocalPosition: {x: -0.14844382, y: 0.011549292, z: 0.004599631}
  m_LocalScale: {x: 0.9999999, y: 1.0000103, z: 0.99999285}
  m_Children:
  - {fileID: 4332414114079536}
  m_Father: {fileID: 4378193303973300}
  m_RootOrder: 2
  m_LocalEulerAnglesHint: {x: 0, y: 0, z: 0}
--- !u!1 &1668184154543518
GameObject:
  m_ObjectHideFlags: 0
  m_CorrespondingSourceObject: {fileID: 0}
  m_PrefabInstance: {fileID: 0}
  m_PrefabAsset: {fileID: 0}
  serializedVersion: 6
  m_Component:
  - component: {fileID: 4332414114079536}
  m_Layer: 0
  m_Name: Base HumanRDigit32
  m_TagString: Untagged
  m_Icon: {fileID: 0}
  m_NavMeshLayer: 0
  m_StaticEditorFlags: 0
  m_IsActive: 1
--- !u!4 &4332414114079536
Transform:
  m_ObjectHideFlags: 0
  m_CorrespondingSourceObject: {fileID: 0}
  m_PrefabInstance: {fileID: 0}
  m_PrefabAsset: {fileID: 0}
  m_GameObject: {fileID: 1668184154543518}
  m_LocalRotation: {x: -0.00000020246146, y: -0.0000007042498, z: 0.051434383, w: 0.9986764}
  m_LocalPosition: {x: -0.06429131, y: -0.00000012107193, z: 0}
  m_LocalScale: {x: 0.99999976, y: 1.0000104, z: 0.9999931}
  m_Children:
  - {fileID: 4945543035620170}
  m_Father: {fileID: 4591239115582972}
  m_RootOrder: 0
  m_LocalEulerAnglesHint: {x: 0, y: 0, z: 0}
--- !u!1 &1756158768924802
GameObject:
  m_ObjectHideFlags: 0
  m_CorrespondingSourceObject: {fileID: 0}
  m_PrefabInstance: {fileID: 0}
  m_PrefabAsset: {fileID: 0}
  serializedVersion: 6
  m_Component:
  - component: {fileID: 4150756404027930}
  m_Layer: 0
  m_Name: Base HumanRDigit23
  m_TagString: Untagged
  m_Icon: {fileID: 0}
  m_NavMeshLayer: 0
  m_StaticEditorFlags: 0
  m_IsActive: 1
--- !u!4 &4150756404027930
Transform:
  m_ObjectHideFlags: 0
  m_CorrespondingSourceObject: {fileID: 0}
  m_PrefabInstance: {fileID: 0}
  m_PrefabAsset: {fileID: 0}
  m_GameObject: {fileID: 1756158768924802}
  m_LocalRotation: {x: -0.00000021141494, y: -0.0000004169695, z: 0.24043952, w: 0.97066414}
  m_LocalPosition: {x: -0.04691644, y: -0.0000000037252903, z: -0.000000029802322}
  m_LocalScale: {x: 0.99999374, y: 1.0000162, z: 0.9999931}
  m_Children: []
  m_Father: {fileID: 4151383865423600}
  m_RootOrder: 0
  m_LocalEulerAnglesHint: {x: 0, y: 0, z: 0}
--- !u!1 &1800368525174766
GameObject:
  m_ObjectHideFlags: 0
  m_CorrespondingSourceObject: {fileID: 0}
  m_PrefabInstance: {fileID: 0}
  m_PrefabAsset: {fileID: 0}
  serializedVersion: 6
  m_Component:
  - component: {fileID: 4680473183986682}
  m_Layer: 0
  m_Name: Base HumanRDigit41
  m_TagString: Untagged
  m_Icon: {fileID: 0}
  m_NavMeshLayer: 0
  m_StaticEditorFlags: 0
  m_IsActive: 1
--- !u!4 &4680473183986682
Transform:
  m_ObjectHideFlags: 0
  m_CorrespondingSourceObject: {fileID: 0}
  m_PrefabInstance: {fileID: 0}
  m_PrefabAsset: {fileID: 0}
  m_GameObject: {fileID: 1800368525174766}
  m_LocalRotation: {x: -0.001199836, y: 0.14836682, z: -0.008004196, w: 0.9888993}
  m_LocalPosition: {x: -0.14433932, y: 0.010714237, z: 0.052259386}
  m_LocalScale: {x: 1.0000006, y: 1.00001, z: 0.99999255}
  m_Children:
  - {fileID: 4661954778215684}
  m_Father: {fileID: 4378193303973300}
  m_RootOrder: 3
  m_LocalEulerAnglesHint: {x: 0, y: 0, z: 0}
--- !u!1 &1845949212962186
GameObject:
  m_ObjectHideFlags: 0
  m_CorrespondingSourceObject: {fileID: 0}
  m_PrefabInstance: {fileID: 0}
  m_PrefabAsset: {fileID: 0}
  serializedVersion: 6
  m_Component:
  - component: {fileID: 4378193303973300}
  m_Layer: 0
  m_Name: Base HumanRPalm
  m_TagString: Untagged
  m_Icon: {fileID: 0}
  m_NavMeshLayer: 0
  m_StaticEditorFlags: 0
  m_IsActive: 1
--- !u!4 &4378193303973300
Transform:
  m_ObjectHideFlags: 0
  m_CorrespondingSourceObject: {fileID: 0}
  m_PrefabInstance: {fileID: 0}
  m_PrefabAsset: {fileID: 0}
  m_GameObject: {fileID: 1845949212962186}
  m_LocalRotation: {x: 0.38542554, y: -0.06671778, z: -0.4182118, w: 0.8198139}
  m_LocalPosition: {x: -0.26467752, y: 0, z: -0.0000000027939677}
  m_LocalScale: {x: 1.0000011, y: 1.0000086, z: 0.9999938}
  m_Children:
  - {fileID: 4598995824555142}
  - {fileID: 4719797559633310}
  - {fileID: 4591239115582972}
  - {fileID: 4680473183986682}
  m_Father: {fileID: 4505068078721916}
  m_RootOrder: 0
  m_LocalEulerAnglesHint: {x: 0, y: 0, z: 0}
--- !u!1 &1970211125150674
GameObject:
  m_ObjectHideFlags: 0
  m_CorrespondingSourceObject: {fileID: 0}
  m_PrefabInstance: {fileID: 0}
  m_PrefabAsset: {fileID: 0}
  serializedVersion: 6
  m_Component:
  - component: {fileID: 4719797559633310}
  m_Layer: 0
  m_Name: Base HumanRDigit21
  m_TagString: Untagged
  m_Icon: {fileID: 0}
  m_NavMeshLayer: 0
  m_StaticEditorFlags: 0
  m_IsActive: 1
--- !u!4 &4719797559633310
Transform:
  m_ObjectHideFlags: 0
  m_CorrespondingSourceObject: {fileID: 0}
  m_PrefabInstance: {fileID: 0}
  m_PrefabAsset: {fileID: 0}
  m_GameObject: {fileID: 1970211125150674}
  m_LocalRotation: {x: -0.10023913, y: -0.045802772, z: 0.05179784, w: 0.99255794}
  m_LocalPosition: {x: -0.13642979, y: 0.0025023296, z: -0.04616019}
  m_LocalScale: {x: 0.9999998, y: 1.0000107, z: 0.99999255}
  m_Children:
  - {fileID: 4151383865423600}
  m_Father: {fileID: 4378193303973300}
  m_RootOrder: 1
  m_LocalEulerAnglesHint: {x: 0, y: 0, z: 0}
